0	0	0.01	0.02	0.03	0.04	0.05	0.06	0.07	0.08	0.09	0.1	0.11	0.12	0.13	0.14	0.15	0.16	0.17	0.18	0.19	0.2	0.21	0.22	0.23	0.24	0.25	0.26	0.27	0.28	0.29	0.3	0.31	0.32	0.33	0.34	0.35	0.36	0.37	0.38	0.39	0.4	0.41	0.42	0.43	0.44	0.45	0.46	0.47	0.48	0.49	0.5	0.51	0.52	0.53	0.54	0.55	0.56	0.57	0.58	0.59	0.6	0.61	0.62	0.63	0.64	0.65	0.66	0.67	0.68	0.69	0.7	0.71	0.72	0.73	0.74	0.75	0.76	0.77	0.78	0.79	0.8	0.81	0.82	0.83	0.84	0.85	0.86	0.87	0.88	0.89	0.9	0.91	0.92	0.93	0.94	0.95	0.96	0.97	0.98	0.99	1	
0	0	0	0	0	0	0	0	0	0	0	0	0	0	0	0	0	0	0	0	0	0	0	0	0	0	0	0	0	0	0	0	0	0	0	0	0	0	0	0	0	0	0	0	0	0	0	0	0	0	0	0	0	0	0	0	0	0	0	0	0	0	0	0	0	0	0	0	0	0	0	0	0	0	0	0	0	0	0	0	0	0	0	0	0	0	0	0	0	0	0	0	0	0	0	0	0	0	0	0	0	0	
0.01	20	10	6.04695	4.1878	3.16995	2.5426	2.12073	1.81848	1.59154	1.41498	1.27375	1.15823	1.06204	0.980716	0.911095	0.850851	0.798237	0.751921	0.710868	0.67426	0.641443	0.611889	0.585168	0.560924	0.538861	0.518732	0.500328	0.48347	0.468009	0.453813	0.440772	0.428789	0.417779	0.407669	0.398396	0.389904	0.382143	0.375072	0.368651	0.362849	0.357635	0.352987	0.348883	0.345301	0.342228	0.339649	0.337554	0.335933	0.33478	0.33409	0.33386	0.33409	0.33478	0.335934	0.337555	0.339651	0.342229	0.345302	0.348884	0.352991	0.357639	0.362851	0.368654	0.375075	0.382147	0.389909	0.398402	0.407675	0.417786	0.428796	0.44078	0.453821	0.468016	0.483478	0.500336	0.51874	0.53887	0.560932	0.585176	0.611897	0.64145	0.674267	0.710875	0.751928	0.798244	0.850857	0.911102	0.980722	1.06204	1.15824	1.27375	1.41499	1.59155	1.81848	2.12073	2.5426	3.16995	4.1878	6.04695	10	20	
0.02	20	13.9531	10	7.5343	5.94939	4.87971	4.12184	3.56165	3.13271	2.79463	2.52177	2.29715	2.1092	1.94973	1.81282	1.69407	1.59018	1.49858	1.41729	1.34473	1.27962	1.22095	1.16786	1.11967	1.07579	1.03574	0.999107	0.965544	0.934751	0.906473	0.880487	0.856604	0.834657	0.814501	0.796011	0.779076	0.763598	0.749492	0.736684	0.725107	0.714706	0.705432	0.69724	0.690093	0.683961	0.678814	0.674632	0.671398	0.669096	0.667719	0.667261	0.667719	0.669097	0.6714	0.674636	0.678817	0.683962	0.690095	0.697244	0.705437	0.714711	0.725113	0.73669	0.749498	0.763605	0.779086	0.796022	0.814514	0.83467	0.856617	0.880501	0.906487	0.934766	0.96556	0.999123	1.03576	1.0758	1.11968	1.16787	1.22096	1.27964	1.34474	1.4173	1.49859	1.59019	1.69408	1.81283	1.94974	2.10921	2.29716	2.52178	2.79464	3.13272	3.56166	4.12185	4.87972	5.9494	7.53431	10	13.9531	20	
0.03	20	15.8122	12.4657	10	8.21361	6.90501	5.92527	5.17356	4.58302	4.10908	3.72153	3.39941	3.12788	2.89619	2.69637	2.52244	2.36981	2.23493	2.11499	2.00773	1.91137	1.82441	1.74566	1.6741	1.60889	1.54933	1.49482	1.44485	1.39898	1.35684	1.3181	1.28248	1.24974	1.21967	1.19207	1.16679	1.14368	1.12261	1.10348	1.08619	1.07065	1.05679	1.04455	1.03387	1.02471	1.01701	1.01076	1.00593	1.00249	1.00043	0.999744	1.00043	1.00249	1.00593	1.01077	1.01702	1.02471	1.03388	1.04456	1.0568	1.07066	1.0862	1.10349	1.12262	1.14369	1.1668	1.19209	1.21969	1.24976	1.2825	1.31812	1.35686	1.399	1.44487	1.49484	1.54935	1.60891	1.67412	1.74568	1.82443	1.91139	2.00776	2.11501	2.23495	2.36983	2.52245	2.69638	2.8962	3.1279	3.39943	3.72154	4.10909	4.58303	5.17357	5.92528	6.90502	8.21362	10	12.4657	15.8122	20	
0.04	20	16.8301	14.0506	11.7864	10	8.60144	7.50069	6.6243	5.91671	5.33714	4.85586	4.45109	4.10674	3.81076	3.55402	3.32949	3.13171	2.95635	2.79999	2.65986	2.5337	2.41968	2.31626	2.22217	2.13634	2.05787	1.98599	1.92005	1.85948	1.8038	1.75259	1.70548	1.66217	1.62236	1.58582	1.55233	1.52171	1.4938	1.46844	1.44552	1.42491	1.40654	1.3903	1.37613	1.36397	1.35377	1.34548	1.33906	1.3345	1.33177	1.33086	1.33177	1.3345	1.33907	1.34548	1.35377	1.36398	1.37614	1.39031	1.40654	1.42492	1.44553	1.46845	1.49381	1.52173	1.55235	1.58584	1.62238	1.66219	1.70551	1.75262	1.80383	1.85951	1.92008	1.98602	2.0579	2.13637	2.2222	2.31629	2.41971	2.53373	2.65989	2.80002	2.95638	3.13173	3.32952	3.55405	3.81079	4.10676	4.45111	4.85587	5.33716	5.91673	6.62431	7.5007	8.60145	10	11.7864	14.0506	16.8301	20	
0.05	20	17.4574	15.1203	13.095	11.3986	10	8.85175	7.90623	7.12239	6.46692	5.91367	5.44234	5.03721	4.6861	4.37947	4.10981	3.87117	3.65877	3.46876	3.298	3.1439	3.00434	2.87753	2.76198	2.65643	2.55982	2.47122	2.38987	2.31509	2.24629	2.18297	2.1247	2.07108	2.02178	1.97651	1.93501	1.89705	1.86242	1.83097	1.80252	1.77695	1.75414	1.73398	1.71639	1.70129	1.68861	1.67831	1.67034	1.66467	1.66128	1.66015	1.66128	1.66468	1.67035	1.67832	1.68862	1.70129	1.7164	1.73399	1.75415	1.77696	1.80254	1.83098	1.86244	1.89706	1.93503	1.97653	2.02181	2.07111	2.12473	2.18301	2.24632	2.31512	2.38991	2.47126	2.55985	2.65647	2.76202	2.87756	3.00438	3.14394	3.29804	3.4688	3.65881	3.8712	4.10984	4.3795	4.68613	5.03724	5.44236	5.91369	6.46694	7.12241	7.90625	8.85176	10	11.3986	13.095	15.1203	17.4574	20	
0.06	20	17.8793	15.8782	14.0748	12.4994	11.1483	10	9.0265	8.19968	7.49447	6.88955	6.36738	5.91368	5.51696	5.16794	4.85911	4.58439	4.33881	4.11829	3.91948	3.73957	3.57625	3.42754	3.29179	3.16759	3.05374	2.94922	2.85313	2.76471	2.6833	2.60832	2.53925	2.47567	2.41717	2.36343	2.31414	2.26903	2.22788	2.19048	2.15665	2.12623	2.09909	2.07509	2.05415	2.03617	2.02108	2.00881	1.99932	1.99257	1.98853	1.98719	1.98854	1.99258	1.99933	2.00882	2.02109	2.03618	2.05416	2.0751	2.0991	2.12624	2.15667	2.1905	2.2279	2.26906	2.31416	2.36346	2.4172	2.4757	2.53929	2.60835	2.68334	2.76476	2.85317	2.94926	3.05379	3.16763	3.29183	3.42758	3.57629	3.73962	3.91952	4.11833	4.33884	4.58443	4.85915	5.16798	5.517	5.91371	6.36741	6.88958	7.4945	8.19971	9.02652	10.0001	11.1483	12.4994	14.0748	15.8782	17.8793	20	
0.07	20	18.1815	16.4384	14.8265	13.3758	12.0938	10.9736	10	9.15538	8.42173	7.7827	7.22393	6.73318	6.30013	5.91622	5.5743	5.26846	4.99377	4.74611	4.52204	4.31867	4.13354	3.96459	3.81004	3.66839	3.53835	3.41878	3.30872	3.20733	3.11389	3.02774	2.94833	2.87517	2.80782	2.7459	2.68909	2.63707	2.58959	2.54643	2.50737	2.47223	2.44088	2.41316	2.38895	2.36817	2.35072	2.33654	2.32556	2.31776	2.31308	2.31153	2.31309	2.31777	2.32558	2.33655	2.35073	2.36818	2.38897	2.41317	2.44089	2.47225	2.50738	2.54645	2.58962	2.63709	2.68911	2.74593	2.80785	2.8752	2.94837	3.02778	3.11393	3.20738	3.30877	3.41883	3.53839	3.66844	3.81009	3.96464	4.13359	4.31872	4.52209	4.74616	4.99382	5.26851	5.57435	5.91626	6.30017	6.73321	7.22397	7.78273	8.42176	9.15541	10.0001	10.9736	12.0939	13.3758	14.8265	16.4384	18.1815	20	
0.08	20	18.4085	16.8673	15.417	14.0834	12.8777	11.8004	10.8447	10.0001	9.25436	8.59558	8.01248	7.49495	7.03417	6.6225	6.25342	5.92139	5.6217	5.35035	5.10392	4.87951	4.67466	4.48723	4.3154	4.1576	4.01247	3.87882	3.75564	3.64201	3.53717	3.44042	3.35116	3.26885	3.19303	3.12328	3.05923	3.00056	2.94699	2.89826	2.85415	2.81446	2.77903	2.7477	2.72033	2.69683	2.6771	2.66105	2.64864	2.63981	2.63452	2.63277	2.63453	2.63982	2.64865	2.66107	2.67711	2.69684	2.72035	2.74771	2.77905	2.81448	2.85417	2.89828	2.94702	3.00059	3.05926	3.12331	3.19306	3.26889	3.3512	3.44047	3.53722	3.64207	3.75569	3.87888	4.01252	4.15766	4.31546	4.48728	4.67471	4.87957	5.10397	5.3504	5.62175	5.92144	6.25347	6.62254	7.03421	7.49499	8.01252	8.59562	9.25439	10.0001	10.8448	11.8004	12.8777	14.0834	15.4171	16.8673	18.4085	20	
0.09	20	18.585	17.2054	15.891	14.6629	13.5332	12.5056	11.5784	10.7458	10.0001	9.3328	8.73545	8.19999	7.71908	7.28617	6.89549	6.54199	6.2213	5.92965	5.66376	5.42081	5.19835	4.99427	4.80673	4.63414	4.4751	4.32841	4.19299	4.06792	3.95237	3.84562	3.74703	3.65605	3.57217	3.49494	3.42399	3.35896	3.29955	3.24548	3.19651	3.15244	3.11308	3.07826	3.04785	3.02173	2.99978	2.98194	2.96813	2.95831	2.95243	2.95048	2.95244	2.95832	2.96815	2.98196	2.9998	3.02174	3.04787	3.07828	3.1131	3.15246	3.19654	3.2455	3.29958	3.35899	3.42402	3.49498	3.57221	3.65609	3.74708	3.84567	3.95242	4.06797	4.19305	4.32847	4.47516	4.6342	4.80679	4.99433	5.19841	5.42087	5.66382	5.92971	6.22136	6.54204	6.89554	7.28622	7.71913	8.20003	8.73549	9.33284	10.0001	10.7458	11.5784	12.5057	13.5332	14.663	15.891	17.2054	18.585	20	
0.1	20	18.7263	17.4783	16.2785	15.1442	14.0864	13.1106	12.2174	11.4046	10.6674	10.0001	9.39653	8.85047	8.356	7.90763	7.50037	7.12977	6.79187	6.48319	6.20067	5.94161	5.70366	5.48476	5.28311	5.09712	4.9254	4.76672	4.62	4.48429	4.35876	4.24265	4.13531	4.03614	3.94464	3.86034	3.78283	3.71174	3.64676	3.58759	3.53398	3.48571	3.44258	3.40442	3.37108	3.34243	3.31837	3.29879	3.28365	3.27287	3.26642	3.26428	3.26643	3.27288	3.28366	3.29881	3.31838	3.34245	3.3711	3.40444	3.4426	3.48573	3.53401	3.58762	3.64679	3.71178	3.78287	3.86038	3.94469	4.03619	4.13536	4.2427	4.35882	4.48436	4.62006	4.76678	4.92546	5.09719	5.28318	5.48483	5.70372	5.94167	6.20073	6.48325	6.79193	7.12983	7.50042	7.90768	8.35605	8.85052	9.39657	10.0001	10.6674	11.4046	12.2175	13.1106	14.0865	15.1442	16.2785	17.4783	18.7263	20	
0.11	20	18.8418	17.7029	16.6007	15.549	14.5578	13.6327	12.7762	11.9877	11.2647	10.6037	10.0001	9.44938	8.94683	8.48797	8.06859	7.68484	7.33322	7.01058	6.7141	6.44129	6.18992	5.95801	5.74384	5.54584	5.36265	5.19306	5.036	4.8905	4.75573	4.63092	4.5154	4.40858	4.30992	4.21895	4.13524	4.05842	3.98815	3.92414	3.86611	3.81384	3.76712	3.72576	3.68962	3.65855	3.63245	3.61123	3.59479	3.5831	3.5761	3.57378	3.57611	3.58311	3.59481	3.61124	3.63247	3.65857	3.68964	3.72578	3.76714	3.81386	3.86614	3.92417	3.98819	4.05846	4.13528	4.21899	4.30996	4.40863	4.51545	4.63097	4.75579	4.89057	5.03607	5.19313	5.36272	5.54591	5.74391	5.95809	6.18999	6.44136	6.71417	7.01065	7.33329	7.6849	8.06865	8.48802	8.94688	9.44943	10.0001	10.6037	11.2648	11.9877	12.7762	13.6328	14.5578	15.549	16.6007	17.7029	18.8418	20	
0.12	20	18.938	17.8908	16.8722	15.8934	14.9629	14.0864	13.267	12.5052	11.8002	11.1497	10.5508	10.0001	9.49397	9.02882	8.60118	8.20779	7.84559	7.5118	7.20388	6.91954	6.65671	6.41354	6.18838	5.97974	5.7863	5.60688	5.44043	5.28599	5.14273	5.00989	4.88679	4.77285	4.66751	4.57029	4.48077	4.39855	4.32329	4.2547	4.19248	4.13642	4.08628	4.04189	4.00308	3.96971	3.94167	3.91886	3.9012	3.88864	3.88111	3.87861	3.88112	3.88865	3.90122	3.91888	3.94169	3.96973	4.0031	4.04191	4.0863	4.13644	4.19251	4.25473	4.32333	4.39858	4.48081	4.57033	4.66756	4.7729	4.88685	5.00995	5.14279	5.28606	5.4405	5.60696	5.78638	5.97982	6.18846	6.41362	6.65678	6.91961	7.20395	7.51187	7.84566	8.20785	8.60125	9.02888	9.49403	10.0002	10.5509	11.1498	11.8002	12.5052	13.267	14.0865	14.9629	15.8934	16.8722	17.8909	18.938	20	
0.13	20	19.0193	18.0503	17.1039	16.1893	15.314	14.4832	13.7	12.966	12.2811	11.6442	11.0534	10.5063	10.0001	9.53215	9.09954	8.69954	8.32955	7.98715	7.67008	7.37627	7.10383	6.85106	6.6164	6.39844	6.19594	6.00774	5.83284	5.6703	5.5193	5.37911	5.24904	5.12851	5.01697	4.91394	4.81898	4.73171	4.65178	4.57887	4.51271	4.45306	4.3997	4.35243	4.31109	4.27554	4.24566	4.22135	4.20252	4.18912	4.1811	4.17843	4.18111	4.18914	4.20254	4.22137	4.24568	4.27557	4.31111	4.35245	4.39972	4.45309	4.51274	4.5789	4.65181	4.73175	4.81902	4.91399	5.01702	5.12857	5.2491	5.37917	5.51937	5.67037	5.83291	6.00782	6.19602	6.39853	6.61648	6.85114	7.10392	7.37635	7.67016	7.98723	8.32963	8.69961	9.0996	9.53222	10.0002	10.5063	11.0534	11.6442	12.2811	12.966	13.7001	14.4832	15.314	16.1894	17.1039	18.0503	19.0193	20	
0.14	20	19.0889	18.1872	17.3037	16.4461	15.6206	14.8322	14.0839	13.3777	12.714	12.0926	11.5123	10.9714	10.4681	10.0001	9.56527	9.16127	8.78593	8.43717	8.11302	7.81163	7.5313	7.27047	7.02771	6.8017	6.59126	6.39531	6.21288	6.04307	5.88508	5.7382	5.60176	5.47518	5.35792	5.24951	5.14951	5.05753	4.97323	4.89629	4.82644	4.76342	4.70701	4.65704	4.61331	4.5757	4.54408	4.51835	4.49842	4.48423	4.47574	4.47291	4.47575	4.48424	4.49844	4.51837	4.54411	4.57573	4.61334	4.65706	4.70704	4.76345	4.82647	4.89633	4.97327	5.05757	5.14956	5.24956	5.35798	5.47524	5.60183	5.73827	5.88516	6.04314	6.21296	6.3954	6.59135	6.80178	7.02779	7.27056	7.53139	7.81171	8.1131	8.43725	8.78601	9.16134	9.56534	10.0002	10.4682	10.9715	11.5123	12.0926	12.7141	13.3777	14.084	14.8322	15.6207	16.4461	17.3037	18.1872	19.0889	20	
0.15	20	19.1492	18.306	17.4776	16.6706	15.8903	15.141	14.4259	13.7468	13.1047	12.4999	11.9316	11.3991	10.9007	10.435	10.0001	9.59433	9.21573	8.86259	8.53319	8.22592	7.93927	7.67182	7.42226	7.18939	6.9721	6.76937	6.58029	6.40401	6.23976	6.08684	5.94462	5.81253	5.69003	5.57667	5.47202	5.37568	5.28732	5.20663	5.13332	5.06715	5.00791	4.95539	4.90942	4.86988	4.83662	4.80955	4.78858	4.77364	4.76471	4.76173	4.76471	4.77366	4.78859	4.80957	4.83664	4.8699	4.90945	4.95542	5.00794	5.06719	5.13335	5.20666	5.28736	5.37572	5.47206	5.57672	5.69009	5.81259	5.94469	6.08691	6.23984	6.40409	6.58038	6.76946	6.97218	7.18948	7.42235	7.67191	7.93936	8.22601	8.53328	8.86267	9.21581	9.59441	10.0002	10.4351	10.9008	11.3991	11.9317	12.4999	13.1048	13.7468	14.4259	15.1411	15.8903	16.6706	17.4777	18.306	19.1492	20	
0.16	20	19.2018	18.4099	17.6303	16.8684	16.129	15.4158	14.7317	14.0788	13.4582	12.8705	12.3154	11.7925	11.3007	10.839	10.406	10.0002	9.62008	9.26426	8.93123	8.6196	8.32804	8.05527	7.80012	7.56149	7.33836	7.12979	6.93491	6.75293	6.58311	6.42479	6.27736	6.14027	6.01301	5.89513	5.7862	5.68585	5.59375	5.50957	5.43306	5.36397	5.30207	5.24718	5.19912	5.15776	5.12297	5.09464	5.07269	5.05706	5.04771	5.04459	5.04771	5.05708	5.07271	5.09466	5.12299	5.15779	5.19916	5.24721	5.30211	5.364	5.4331	5.50961	5.59379	5.6859	5.78625	5.89518	6.01307	6.14033	6.27743	6.42486	6.58318	6.75301	6.93499	7.12988	7.33845	7.56158	7.80021	8.05536	8.32813	8.61969	8.93132	9.26434	9.62017	10.0002	10.4061	10.8391	11.3008	11.7925	12.3155	12.8705	13.4583	14.0788	14.7318	15.4158	16.129	16.8684	17.6303	18.4099	19.2018	20	
0.17	20	19.2481	18.5015	17.7651	17.0438	16.3414	15.6613	15.0064	14.3785	13.7789	13.2084	12.667	12.1547	11.6707	11.2144	10.7846	10.3803	10.0002	9.64312	9.30787	8.99322	8.698	8.4211	8.16147	7.9181	7.69007	7.47652	7.27663	7.08967	6.91495	6.75184	6.59976	6.45818	6.32661	6.20462	6.0918	5.98778	5.89223	5.80486	5.72539	5.65358	5.58923	5.53213	5.48213	5.43908	5.40285	5.37335	5.35049	5.33421	5.32446	5.32122	5.32447	5.33422	5.35051	5.37337	5.40288	5.43911	5.48216	5.53217	5.58927	5.65362	5.72543	5.8049	5.89228	5.98783	6.09185	6.20468	6.32667	6.45824	6.59983	6.75191	6.91503	7.08975	7.27672	7.47661	7.69016	7.91819	8.16156	8.4212	8.6981	8.99332	9.30797	9.64322	10.0003	10.3803	10.7847	11.2145	11.6708	12.1548	12.6671	13.2084	13.779	14.3785	15.0065	15.6614	16.3414	17.0438	17.7652	18.5015	19.2481	20	
0.18	20	19.2892	18.5828	17.8851	17.2001	16.5314	15.8819	15.2541	14.6499	14.0706	13.5171	12.9897	12.4885	12.0131	11.5631	11.1377	10.7361	10.3572	10.0002	9.66392	9.34741	9.04965	8.76967	8.50654	8.25937	8.02731	7.80957	7.60543	7.41418	7.23519	7.06786	6.91166	6.76607	6.63064	6.50494	6.38859	6.28123	6.18254	6.09224	6.01005	5.93575	5.86913	5.80999	5.75819	5.71357	5.67601	5.64542	5.62172	5.60483	5.59472	5.59135	5.59472	5.60484	5.62173	5.64545	5.67604	5.7136	5.75822	5.81003	5.86917	5.93579	6.01009	6.09228	6.18259	6.28128	6.38864	6.505	6.6307	6.76614	6.91173	7.06794	7.23527	7.41426	7.60552	7.80967	8.0274	8.25946	8.50664	8.76977	9.04975	9.34751	9.66402	10.0003	10.3573	10.7362	11.1378	11.5632	12.0132	12.4886	12.9898	13.5171	14.0706	14.6499	15.2541	15.8819	16.5314	17.2002	17.8851	18.5828	19.2892	20	
0.19	20	19.3258	18.6553	17.9924	17.3403	16.7021	16.0807	15.4781	14.8963	14.3365	13.7996	13.2862	12.7964	12.3302	11.8873	11.4672	11.0691	10.6925	10.3365	10.0002	9.68284	9.38351	9.1014	8.83566	8.58552	8.35022	8.12905	7.92133	7.72643	7.54376	7.37276	7.21294	7.06381	6.92494	6.79592	6.67639	6.56601	6.46447	6.37149	6.28683	6.21024	6.14153	6.08053	6.02706	5.98099	5.94221	5.91061	5.88612	5.86867	5.85822	5.85474	5.85822	5.86868	5.88614	5.91064	5.94224	5.98102	6.0271	6.08057	6.14158	6.21028	6.28687	6.37154	6.46452	6.56606	6.67645	6.79598	6.925	7.06388	7.21301	7.37284	7.54384	7.72651	7.92142	8.12914	8.35032	8.58562	8.83576	9.1015	9.38362	9.68294	10.0003	10.3366	10.6926	11.0692	11.4672	11.8874	12.3303	12.7965	13.2862	13.7997	14.3365	14.8964	15.4782	16.0807	16.7022	17.3403	17.9924	18.6553	19.3258	20	
0.2	20	19.3586	18.7204	18.0887	17.4664	16.8562	16.2606	15.6815	15.1207	14.5794	14.0587	13.559	13.0808	12.6241	12.1887	11.7744	11.3808	11.0072	10.653	10.3176	10.0002	9.70018	9.41674	9.14918	8.89683	8.659	8.43506	8.2244	8.02644	7.84064	7.6665	7.50353	7.35129	7.20938	7.07741	6.95504	6.84195	6.73784	6.64244	6.55552	6.47685	6.40624	6.34352	6.28853	6.24113	6.20122	6.16869	6.14348	6.12551	6.11475	6.11117	6.11475	6.12552	6.1435	6.16872	6.20125	6.24117	6.28857	6.34356	6.40629	6.4769	6.55557	6.64249	6.73789	6.842	6.9551	7.07747	7.20944	7.35136	7.5036	7.66658	7.84073	8.02653	8.2245	8.43516	8.6591	8.89693	9.14929	9.41684	9.70028	10.0003	10.3177	10.6531	11.0073	11.3809	11.7745	12.1888	12.6241	13.0808	13.5591	14.0587	14.5795	15.1208	15.6816	16.2606	16.8563	17.4664	18.0887	18.7205	19.3586	20	
0.21	20	19.3881	18.7791	18.1757	17.5804	16.9958	16.4239	15.8667	15.3256	14.8019	14.2966	13.8104	13.3436	12.8965	12.469	12.0611	11.6724	11.3024	10.9508	10.6169	10.3003	10.0002	9.71619	9.44751	9.19361	8.9539	8.7278	8.51478	8.3143	8.12588	7.94905	7.78338	7.62844	7.48387	7.3493	7.22441	7.1089	7.00249	6.90491	6.81595	6.7354	6.66307	6.59878	6.5424	6.49379	6.45284	6.41947	6.39359	6.37515	6.3641	6.36042	6.3641	6.37516	6.39361	6.41949	6.45287	6.49382	6.54244	6.59883	6.66311	6.73545	6.816	6.90496	7.00254	7.10895	7.22447	7.34936	7.48393	7.62851	7.78345	7.94913	8.12597	8.31439	8.51487	8.7279	8.954	9.19372	9.44762	9.71629	10.0003	10.3004	10.617	10.9509	11.3025	11.6725	12.0612	12.4691	12.8966	13.3437	13.8104	14.2967	14.802	15.3256	15.8667	16.424	16.9958	17.5805	18.1757	18.7791	19.3882	20	
0.22	20	19.4149	18.8322	18.2544	17.6839	17.1226	16.5726	16.0356	15.513	15.006	14.5155	14.0423	13.5868	13.1493	12.7299	12.3286	11.9451	11.5793	11.2308	10.8991	10.5837	10.2843	10.0003	9.73106	9.47621	9.23518	9.00747	8.7926	8.5901	8.39953	8.22046	8.05248	7.89523	7.74835	7.61152	7.48441	7.36675	7.25829	7.15877	7.06799	6.98574	6.91184	6.84614	6.7885	6.73879	6.6969	6.66275	6.63626	6.61739	6.60608	6.60231	6.60608	6.61739	6.63628	6.66277	6.69693	6.73882	6.78854	6.84619	6.91189	6.98579	7.06804	7.15882	7.25834	7.36681	7.48447	7.61158	7.74842	7.89531	8.05256	8.22054	8.39962	8.59019	8.7927	9.00757	9.23528	9.47631	9.73117	10.0004	10.2844	10.5839	10.8992	11.2309	11.5794	11.9452	12.3287	12.73	13.1494	13.5869	14.0424	14.5156	15.0061	15.5131	16.0357	16.5727	17.1227	17.6839	18.2545	18.8322	19.4149	20	
0.23	20	19.4391	18.8804	18.326	17.778	17.2382	16.7084	16.1902	15.6848	15.1935	14.7172	14.2565	13.8119	13.384	12.9727	12.5781	12.2003	11.839	11.4939	11.1648	10.8513	10.553	10.2695	10.0003	9.74498	9.50313	9.2743	9.05806	8.85398	8.66168	8.48076	8.31087	8.15165	8.0028	7.86399	7.73495	7.61542	7.50514	7.4039	7.31148	7.22771	7.15242	7.08545	7.02667	6.97595	6.93321	6.89836	6.87133	6.85205	6.84051	6.83666	6.84051	6.85206	6.87134	6.89839	6.93324	6.97599	7.02671	7.08549	7.15247	7.22776	7.31154	7.40395	7.50519	7.61547	7.73501	7.86405	8.00286	8.15173	8.31094	8.48084	8.66176	8.85407	9.05815	9.2744	9.50324	9.74509	10.0004	10.2696	10.5531	10.8514	11.1649	11.494	11.8391	12.2004	12.5782	12.9728	13.384	13.812	14.2566	14.7172	15.1936	15.6849	16.1902	16.7084	17.2382	17.778	18.326	18.8804	19.4391	20	
0.24	20	19.4612	18.9243	18.3912	17.8638	17.3437	16.8326	16.3318	15.8426	15.3661	14.9032	14.4545	14.0206	13.6019	13.1987	12.811	12.4389	12.0823	11.7411	11.415	11.1037	10.8069	10.5243	10.2556	10.0003	9.75807	9.52855	9.31134	9.10609	8.91243	8.73004	8.55857	8.39772	8.24719	8.1067	7.97599	7.85482	7.74295	7.64019	7.54634	7.46122	7.38468	7.31657	7.25676	7.20515	7.16165	7.12616	7.09863	7.079	7.06724	7.06332	7.06724	7.07901	7.09864	7.12618	7.16167	7.20519	7.2568	7.31661	7.38472	7.46127	7.54639	7.64025	7.74301	7.85488	7.97605	8.10676	8.24726	8.39779	8.55865	8.73012	8.91252	9.10618	9.31143	9.52865	9.75818	10.0004	10.2557	10.5245	10.807	11.1038	11.4151	11.7412	12.0825	12.439	12.8111	13.1988	13.602	14.0207	14.4546	14.9032	15.3662	15.8427	16.3319	16.8326	17.3438	17.8638	18.3912	18.9243	19.4612	20	
0.25	20	19.4813	18.9643	18.4508	17.9423	17.4403	16.9464	16.4619	15.9878	15.5252	15.0749	14.6377	14.214	13.8044	13.4091	13.0283	12.6621	12.3104	11.9732	11.6503	11.3415	11.0467	10.7654	10.4975	10.2425	10.0003	9.77047	9.55266	9.34659	9.15193	8.96838	8.79565	8.63346	8.48154	8.33963	8.20749	8.08491	7.97167	7.86758	7.77246	7.68615	7.6085	7.53938	7.47866	7.42625	7.38206	7.346	7.31802	7.29807	7.28612	7.28214	7.28612	7.29808	7.31804	7.34602	7.38208	7.42628	7.4787	7.53942	7.60855	7.6862	7.77251	7.86763	7.97173	8.08497	8.20755	8.33969	8.48161	8.63353	8.79573	8.96847	9.15202	9.34668	9.55276	9.77057	10.0004	10.2427	10.4976	10.7655	11.0468	11.3416	11.6504	11.9733	12.3105	12.6622	13.0284	13.4092	13.8045	14.2141	14.6378	15.075	15.5252	15.9878	16.4619	16.9465	17.4404	17.9423	18.4508	18.9643	19.4813	20	
0.26	20	19.4997	19.001	18.5053	18.0141	17.5289	17.051	16.5814	16.1214	15.6719	15.2336	14.8073	14.3935	13.9926	13.6051	13.2311	12.8707	12.524	12.1909	11.8715	11.5655	11.2728	10.9931	10.7263	10.4721	10.2302	10.0003	9.78226	9.57568	9.38032	9.19591	9.0222	8.85893	8.70587	8.56278	8.42944	8.30566	8.19123	8.08599	7.98977	7.90242	7.82379	7.75378	7.69226	7.63913	7.59433	7.55776	7.52939	7.50915	7.49702	7.49298	7.49703	7.50916	7.5294	7.55779	7.59435	7.63917	7.69229	7.75382	7.82384	7.90247	7.98982	8.08605	8.19129	8.30572	8.4295	8.56284	8.70594	8.85901	9.02228	9.196	9.38041	9.57577	9.78236	10.0004	10.2303	10.4722	10.7264	10.9932	11.2729	11.5656	11.8716	12.191	12.5241	12.8708	13.2312	13.6052	13.9927	14.3936	14.8074	15.2337	15.6719	16.1215	16.5815	17.051	17.529	18.0142	18.5053	19.001	19.4997	20	
0.27	20	19.5166	19.0345	18.5553	18.0801	17.6103	17.1471	16.6915	16.2446	15.8073	15.3803	14.9643	14.5599	14.1676	13.7875	13.4201	13.0656	12.7239	12.3951	12.0792	11.7762	11.4858	11.208	10.9426	10.6893	10.448	10.2184	10.0004	9.79355	9.59775	9.41275	9.23831	9.0742	8.92023	8.77617	8.64184	8.51704	8.40161	8.29539	8.19821	8.10996	8.03048	7.95968	7.89745	7.8437	7.79835	7.76134	7.73261	7.71212	7.69984	7.69575	7.69984	7.71213	7.73263	7.76136	7.79838	7.84374	7.89749	7.95972	8.03053	8.11	8.19827	8.29544	8.40167	8.5171	8.6419	8.77624	8.9203	9.07428	9.23838	9.41283	9.59784	9.79364	10.0005	10.2185	10.4481	10.6894	10.9427	11.2081	11.4859	11.7763	12.0793	12.3952	12.724	13.0657	13.4203	13.7876	14.1677	14.56	14.9644	15.3804	15.8074	16.2447	16.6916	17.1471	17.6103	18.0801	18.5553	19.0345	19.5166	20	
0.28	20	19.532	19.0653	18.6011	18.1407	17.6851	17.2355	16.7929	16.3582	15.9324	15.516	15.1098	14.7144	14.3301	13.9574	13.5964	13.2476	12.9108	12.5864	12.2741	11.9741	11.6863	11.4105	11.1467	10.8946	10.6541	10.425	10.2072	10.0004	9.80439	9.61902	9.44407	9.27935	9.12466	8.97984	8.84469	8.71906	8.60279	8.49573	8.39774	8.30871	8.2285	8.15702	8.09417	8.03987	7.99404	7.95664	7.92759	7.90688	7.89446	7.89032	7.89446	7.90689	7.92761	7.95666	7.99407	8.0399	8.0942	8.15706	8.22854	8.30875	8.3978	8.49579	8.60285	8.71912	8.84476	8.9799	9.12473	9.27942	9.44415	9.6191	9.80448	10.0005	10.2073	10.4251	10.6542	10.8947	11.1468	11.4106	11.6864	11.9743	12.2742	12.5865	12.9109	13.2477	13.5966	13.9575	14.3302	14.7145	15.1099	15.5161	15.9325	16.3583	16.793	17.2355	17.6851	18.1407	18.6012	19.0653	19.532	20	
0.29	20	19.5462	19.0936	18.6433	18.1963	17.7539	17.3169	16.8864	16.4631	16.0479	15.6416	15.2446	14.8577	14.4811	14.1154	13.7607	13.4174	13.0856	12.7654	12.4568	12.16	11.8747	11.6011	11.339	11.0883	10.8488	10.6204	10.403	10.1964	10.0004	9.81486	9.6396	9.47445	9.31924	9.17382	9.03803	8.91172	8.79475	8.687	8.58833	8.49862	8.41778	8.34572	8.28233	8.22755	8.18132	8.14356	8.11425	8.09334	8.0808	8.07663	8.0808	8.09335	8.11427	8.14359	8.18134	8.22759	8.28237	8.34576	8.41783	8.49867	8.58838	8.68705	8.79481	8.91178	9.0381	9.17389	9.31931	9.47452	9.63968	9.81495	10.0005	10.1965	10.4031	10.6205	10.8489	11.0884	11.3391	11.6012	11.8749	12.1601	12.4569	12.7655	13.0857	13.4175	13.7608	14.1155	14.4812	14.8578	15.2447	15.6417	16.048	16.4632	16.8864	17.317	17.7539	18.1964	18.6433	19.0936	19.5462	20	
0.3	20	19.5593	19.1196	18.682	18.2476	17.8172	17.3919	16.9725	16.5599	16.1547	15.7577	15.3695	14.9905	14.6213	14.2623	13.9136	13.5757	13.2487	12.9327	12.6278	12.3341	12.0516	11.7802	11.5199	11.2707	11.0324	10.8049	10.588	10.3818	10.186	10.0004	9.82502	9.65961	9.50404	9.35818	9.22189	9.09504	8.97751	8.86918	8.76993	8.67967	8.5983	8.52573	8.46189	8.4067	8.36011	8.32205	8.2925	8.27142	8.25878	8.25457	8.25878	8.27143	8.29252	8.32208	8.36013	8.40673	8.46193	8.52578	8.59835	8.67972	8.76999	8.86923	8.97757	9.0951	9.22195	9.35824	9.50411	9.65968	9.8251	10.0005	10.1861	10.3819	10.5881	10.805	11.0325	11.2708	11.52	11.7803	12.0517	12.3342	12.6279	12.9328	13.2488	13.5758	13.9137	14.2624	14.6214	14.9906	15.3695	15.7578	16.1548	16.5599	16.9726	17.392	17.8173	18.2476	18.682	19.1196	19.5593	20	
0.31	20	19.5712	19.1435	18.7176	18.2947	17.8755	17.461	17.0519	16.6491	16.2533	15.865	15.485	15.1136	14.7514	14.3987	14.0559	13.7232	13.4008	13.0889	12.7877	12.4971	12.2173	11.9482	11.6898	11.4422	11.2051	10.9786	10.7625	10.5568	10.3613	10.1759	10.0005	9.83491	9.67912	9.53296	9.3963	9.26904	9.15107	9.04227	8.94256	8.85184	8.77002	8.69703	8.63279	8.57725	8.53035	8.49204	8.46229	8.44106	8.42833	8.42409	8.42833	8.44107	8.4623	8.49206	8.53038	8.57729	8.63283	8.69707	8.77006	8.85188	8.94261	9.04233	9.15112	9.2691	9.39636	9.53302	9.67919	9.83499	10.0005	10.1759	10.3613	10.5569	10.7626	10.9787	11.2052	11.4423	11.69	11.9483	12.2174	12.4972	12.7878	13.089	13.4009	13.7233	14.056	14.3988	14.7515	15.1137	15.4851	15.8651	16.2534	16.6492	17.052	17.461	17.8755	18.2947	18.7177	19.1435	19.5713	20	
0.32	20	19.5823	19.1654	18.7504	18.338	17.9291	17.5246	17.1251	16.7314	16.3443	15.9642	15.5918	15.2276	14.8719	14.5253	14.188	13.8603	13.5424	13.2345	12.9368	12.6494	12.3722	12.1055	11.8491	11.603	11.3673	11.1419	10.9266	10.7215	10.5264	10.3413	10.166	10.0005	9.84458	9.69823	9.56132	9.43376	9.31544	9.20628	9.10619	9.01509	8.93291	8.85956	8.795	8.73917	8.692	8.65348	8.62355	8.60219	8.58938	8.58512	8.58939	8.6022	8.62356	8.6535	8.69203	8.7392	8.79504	8.85961	8.93295	9.01514	9.10624	9.20634	9.3155	9.43382	9.56138	9.69829	9.84465	10.0005	10.1661	10.3414	10.5265	10.7216	10.9267	11.142	11.3674	11.6031	11.8492	12.1056	12.3723	12.6495	12.9369	13.2346	13.5425	13.8604	14.1881	14.5254	14.872	15.2277	15.5919	15.9643	16.3444	16.7315	17.1252	17.5246	17.9292	18.338	18.7504	19.1654	19.5823	20	
0.33	20	19.5924	19.1856	18.7804	18.3778	17.9784	17.5831	17.1924	16.8073	16.4282	16.0557	15.6905	15.3329	14.9835	14.6426	14.3105	13.9875	13.674	13.37	13.0757	12.7913	12.5168	12.2524	11.998	11.7536	11.5193	11.295	11.0806	10.8762	10.6817	10.4969	10.3218	10.1564	10.0005	9.85405	9.71699	9.58922	9.47066	9.36122	9.26084	9.16943	9.08695	9.01332	8.94849	8.8924	8.84502	8.80631	8.77624	8.75477	8.7419	8.73761	8.7419	8.75478	8.77625	8.80633	8.84505	8.89244	8.94852	9.01336	9.087	9.16948	9.26089	9.36127	9.47071	9.58928	9.71706	9.85412	10.0006	10.1565	10.3219	10.497	10.6817	10.8763	11.0807	11.2951	11.5194	11.7537	11.9981	12.2525	12.5169	12.7914	13.0758	13.3701	13.6741	13.9877	14.3106	14.6427	14.9836	15.333	15.6906	16.0558	16.4282	16.8073	17.1925	17.5831	17.9785	18.3778	18.7805	19.1856	19.5924	20	
0.34	20	19.6016	19.2041	18.808	18.4143	18.0237	17.6368	17.2544	16.877	16.5054	16.14	15.7815	15.4301	15.0865	14.751	14.4239	14.1054	13.796	13.4957	13.2047	12.9233	12.6514	12.3892	12.1368	11.8941	11.6612	11.4381	11.2247	11.0211	10.8271	10.6428	10.468	10.3028	10.1469	10.0005	9.86338	9.73548	9.61674	9.5071	9.4065	9.31486	9.23214	9.15828	9.09322	9.03693	8.98938	8.95051	8.92031	8.89876	8.88583	8.88152	8.88583	8.89876	8.92032	8.95053	8.9894	9.03697	9.09326	9.15832	9.23218	9.31491	9.40655	9.50716	9.6168	9.73554	9.86344	10.0006	10.147	10.3028	10.4681	10.6428	10.8272	11.0211	11.2248	11.4382	11.6613	11.8942	12.1369	12.3893	12.6515	12.9234	13.2048	13.4958	13.7961	14.1055	14.424	14.7511	15.0866	15.4302	15.7815	16.1401	16.5055	16.8771	17.2544	17.6369	18.0237	18.4144	18.8081	19.2041	19.6017	20	
0.35	20	19.6101	19.221	18.8333	18.4478	18.0652	17.6861	17.3112	16.9411	16.5764	16.2176	15.8652	15.5197	15.1815	14.851	14.5285	14.2144	13.9088	13.612	13.3243	13.0457	12.7763	12.5163	12.2658	12.0248	11.7933	11.5714	11.3591	11.1562	10.9629	10.7791	10.6047	10.4397	10.284	10.1377	10.0005	9.87257	9.75373	9.64395	9.54319	9.45138	9.36847	9.29442	9.22919	9.17274	9.12503	9.08604	9.05574	9.03411	9.02114	9.01682	9.02114	9.03412	9.05575	9.08606	9.12506	9.17277	9.22923	9.29446	9.36851	9.45142	9.54324	9.64401	9.75379	9.87263	10.0006	10.1377	10.2841	10.4397	10.6047	10.7791	10.963	11.1563	11.3591	11.5715	11.7934	12.0249	12.2659	12.5164	12.7764	13.0458	13.3244	13.6122	13.9089	14.2145	14.5286	14.8511	15.1816	15.5198	15.8653	16.2176	16.5764	16.9412	17.3113	17.6862	18.0652	18.4479	18.8334	19.221	19.6101	20	
0.36	20	19.6179	19.2365	18.8564	18.4785	18.1032	17.7312	17.3632	16.9998	16.6414	16.2886	15.942	15.6019	15.2688	14.943	14.6249	14.3147	14.0128	13.7194	13.4347	13.1588	12.8918	12.634	12.3854	12.146	11.9159	11.6952	11.4839	11.2819	11.0892	10.9059	10.7319	10.5673	10.4118	10.2656	10.1285	10.0005	9.88166	9.7718	9.67092	9.57898	9.49594	9.42175	9.35638	9.2998	9.25197	9.21288	9.1825	9.16081	9.1478	9.14346	9.1478	9.16081	9.18251	9.2129	9.252	9.29983	9.35642	9.42179	9.49598	9.57903	9.67097	9.77185	9.88171	10.0006	10.1286	10.2656	10.4119	10.5673	10.732	10.906	11.0893	11.2819	11.4839	11.6953	11.916	12.1461	12.3855	12.6341	12.8919	13.1589	13.4348	13.7195	14.0129	14.3148	14.625	14.9431	15.2689	15.602	15.9421	16.2887	16.6415	16.9998	17.3633	17.7313	18.1032	18.4785	18.8565	19.2365	19.6179	20	
0.37	20	19.625	19.2506	18.8775	18.5064	18.1378	17.7724	17.4107	17.0533	16.7008	16.3536	16.0123	15.6772	15.3487	15.0273	14.7132	14.4069	14.1084	13.8181	13.5362	13.2629	12.9983	12.7425	12.4957	12.2579	12.0292	11.8097	11.5993	11.3981	11.2062	11.0235	10.8499	10.6856	10.5304	10.3843	10.2473	10.1194	10.0006	9.89066	9.78972	9.69769	9.61455	9.54026	9.47478	9.4181	9.37018	9.33101	9.30056	9.27882	9.26578	9.26143	9.26578	9.27883	9.30057	9.33103	9.37021	9.41813	9.47482	9.5403	9.6146	9.69774	9.78977	9.89071	10.0006	10.1195	10.2474	10.3844	10.5305	10.6857	10.85	11.0235	11.2063	11.3982	11.5994	11.8097	12.0293	12.258	12.4958	12.7426	12.9984	13.263	13.5363	13.8182	14.1085	14.407	14.7133	15.0274	15.3488	15.6773	16.0124	16.3537	16.7009	17.0534	17.4108	17.7724	18.1378	18.5064	18.8775	19.2506	19.625	20	
0.38	20	19.6314	19.2634	18.8966	18.5317	18.1692	17.8098	17.4539	17.1021	16.7549	16.4128	16.0763	15.7458	15.4216	15.1043	14.794	14.491	14.1958	13.9084	13.6292	13.3583	13.0959	12.842	12.5969	12.3607	12.1333	11.9149	11.7055	11.5052	11.314	11.1318	10.9587	10.7948	10.6398	10.494	10.3571	10.2293	10.1105	10.0006	9.8996	9.80752	9.72432	9.64995	9.5844	9.52764	9.47965	9.44041	9.40991	9.38813	9.37506	9.37071	9.37507	9.38814	9.40992	9.44043	9.47967	9.52767	9.58443	9.64999	9.72436	9.80757	9.89965	10.0006	10.1105	10.2294	10.3572	10.494	10.6399	10.7948	10.9588	11.1319	11.3141	11.5053	11.7056	11.915	12.1334	12.3607	12.597	12.8421	13.0959	13.3584	13.6293	13.9085	14.1959	14.4911	14.794	15.1043	15.4217	15.7459	16.0764	16.4129	16.755	17.1021	17.4539	17.8098	18.1693	18.5318	18.8967	19.2634	19.6314	20	
0.39	20	19.6372	19.275	18.9139	18.5547	18.1977	17.8436	17.4929	17.1462	16.8039	16.4664	16.1343	15.808	15.4878	15.1741	14.8673	14.5676	14.2753	13.9906	13.7139	13.4452	13.1848	12.9328	12.6893	12.4545	12.2284	12.0111	11.8027	11.6032	11.4127	11.2311	11.0585	10.8949	10.7402	10.5946	10.4579	10.3302	10.2114	10.1016	10.0006	9.90848	9.82524	9.75082	9.68522	9.6284	9.58036	9.54107	9.51053	9.48872	9.47564	9.47128	9.47564	9.48873	9.51054	9.54109	9.58038	9.62843	9.68525	9.75086	9.82528	9.90853	10.0006	10.1016	10.2115	10.3303	10.458	10.5946	10.7403	10.8949	11.0585	11.2311	11.4127	11.6033	11.8028	12.0112	12.2285	12.4546	12.6894	12.9329	13.1849	13.4453	13.714	13.9907	14.2754	14.5676	14.8674	15.1742	15.4879	15.8081	16.1344	16.4665	16.8039	17.1463	17.493	17.8437	18.1977	18.5547	18.914	19.275	19.6372	20	
0.4	20	19.6424	19.2854	18.9295	18.5753	18.2233	17.874	17.5281	17.1859	16.8479	16.5147	16.1866	15.8641	15.5475	15.2371	14.9334	14.6367	14.3471	14.0649	13.7905	13.5239	13.2654	13.0151	12.7731	12.5396	12.3147	12.0985	11.891	11.6923	11.5024	11.3213	11.1492	10.986	10.8316	10.6862	10.5497	10.4221	10.3035	10.1936	10.0927	10.0006	9.91733	9.84289	9.77725	9.72039	9.67231	9.63299	9.60242	9.58059	9.56749	9.56313	9.5675	9.58059	9.60243	9.63301	9.67233	9.72042	9.77728	9.84292	9.91737	10.0006	10.0927	10.1937	10.3035	10.4222	10.5498	10.6863	10.8317	10.986	11.1493	11.3214	11.5024	11.6923	11.8911	12.0986	12.3148	12.5397	12.7732	13.0152	13.2655	13.524	13.7906	14.065	14.3472	14.6367	14.9335	15.2372	15.5476	15.8642	16.1867	16.5148	16.848	17.1859	17.5281	17.8741	18.2233	18.5753	18.9295	19.2854	19.6424	20	
0.41	20	19.6471	19.2947	18.9433	18.5936	18.2461	17.9012	17.5594	17.2213	16.8873	16.5578	16.2333	15.9142	15.6008	15.2936	14.9927	14.6986	14.4114	14.1316	13.8592	13.5945	13.3377	13.089	12.8484	12.6162	12.3924	12.1771	11.9705	11.7725	11.5832	11.4027	11.231	11.0682	10.9141	10.769	10.6327	10.5052	10.3866	10.2769	10.1759	10.0839	10.0006	9.92615	9.86049	9.80361	9.7555	9.71616	9.68556	9.66371	9.65061	9.64624	9.65061	9.66372	9.68557	9.71617	9.75552	9.80364	9.86052	9.92619	10.0006	10.0839	10.176	10.2769	10.3867	10.5053	10.6327	10.769	10.9142	11.0682	11.2311	11.4028	11.5833	11.7726	11.9705	12.1772	12.3925	12.6163	12.8485	13.0891	13.3378	13.5946	13.8593	14.1317	14.4115	14.6987	14.9928	15.2936	15.6009	15.9143	16.2334	16.5579	16.8874	17.2214	17.5595	17.9012	18.2461	18.5937	18.9434	19.2947	19.6471	20	
0.42	20	19.6512	19.3029	18.9556	18.6099	18.2662	17.9252	17.5872	17.2527	16.9221	16.596	16.2747	15.9586	15.6481	15.3435	15.0452	14.7535	14.4685	14.1907	13.9202	13.6573	13.402	13.1547	12.9154	12.6843	12.4615	12.2472	12.0413	11.844	11.6553	11.4753	11.304	11.1415	10.9878	10.8428	10.7067	10.5794	10.4609	10.3512	10.2504	10.1583	10.0751	10.0006	9.93495	9.87805	9.82993	9.79057	9.75996	9.7381	9.72499	9.72062	9.72499	9.73811	9.75997	9.79058	9.82995	9.87808	9.93498	10.0007	10.0751	10.1584	10.2504	10.3513	10.461	10.5795	10.7068	10.8429	10.9878	11.1416	11.3041	11.4754	11.6554	11.844	12.0414	12.2472	12.4616	12.6844	12.9155	13.1548	13.4021	13.6573	13.9203	14.1908	14.4686	14.7535	15.0453	15.3436	15.6482	15.9587	16.2748	16.5961	16.9222	17.2527	17.5872	17.9252	18.2663	18.6099	18.9556	19.3029	19.6512	20	
0.43	20	19.6547	19.31	18.9663	18.6241	18.2838	17.9461	17.6114	17.28	16.9525	16.6294	16.3109	15.9974	15.6895	15.3873	15.0912	14.8015	14.5186	14.2425	13.9737	13.7122	13.4584	13.2123	12.9742	12.7441	12.5223	12.3087	12.1035	11.9068	11.7187	11.5392	11.3683	11.2061	11.0526	10.9079	10.772	10.6448	10.5264	10.4168	10.316	10.224	10.1407	10.0663	10.0006	9.94373	9.8956	9.85622	9.82561	9.80374	9.79062	9.78625	9.79062	9.80375	9.82562	9.85624	9.89562	9.94375	10.0007	10.0663	10.1408	10.224	10.316	10.4168	10.5264	10.6448	10.772	10.908	11.0527	11.2061	11.3683	11.5392	11.7188	11.9069	12.1036	12.3088	12.5223	12.7442	12.9743	13.2124	13.4585	13.7123	13.9738	14.2426	14.5186	14.8016	15.0913	15.3873	15.6895	15.9975	16.3109	16.6294	16.9526	17.2801	17.6114	17.9462	18.2839	18.6241	18.9663	19.31	19.6548	20	
0.44	20	19.6578	19.3161	18.9754	18.6362	18.2989	17.9641	17.6321	17.3035	16.9787	16.658	16.3419	16.0308	15.725	15.4249	15.1307	14.8429	14.5616	14.2872	14.0198	13.7597	13.507	13.2621	13.0249	12.7958	12.5747	12.3618	12.1573	11.9611	11.7735	11.5944	11.4238	11.2619	11.1087	10.9642	10.8284	10.7014	10.5831	10.4736	10.3728	10.2808	10.1976	10.1232	10.0575	10.0006	9.9525	9.91312	9.8825	9.86063	9.84751	9.84313	9.84751	9.86064	9.88251	9.91314	9.95252	10.0007	10.0576	10.1232	10.1977	10.2809	10.3729	10.4736	10.5831	10.7014	10.8285	10.9643	11.1088	11.262	11.4239	11.5944	11.7735	11.9612	12.1574	12.3619	12.5748	12.7958	13.025	13.2621	13.5071	13.7597	14.0198	14.2872	14.5617	14.843	15.1308	15.425	15.7251	16.0309	16.342	16.6581	16.9787	17.3036	17.6322	17.9641	18.299	18.6362	18.9755	19.3162	19.6578	20	
0.45	20	19.6604	19.3213	18.9831	18.6464	18.3116	17.9792	17.6496	17.3233	17.0006	16.6821	16.368	16.0588	15.7549	15.4565	15.164	14.8777	14.5978	14.3247	14.0585	13.7996	13.548	13.304	13.0677	12.8393	12.6189	12.4066	12.2026	12.007	11.8197	11.641	11.4707	11.3091	11.1561	11.0118	10.8761	10.7492	10.631	10.5216	10.4209	10.3289	10.2458	10.1713	10.1057	10.0488	10.0006	9.96127	9.93064	9.90877	9.89564	9.89127	9.89565	9.90877	9.93065	9.96128	10.0007	10.0488	10.1057	10.1714	10.2458	10.329	10.4209	10.5216	10.6311	10.7493	10.8762	11.0118	11.1562	11.3092	11.4708	11.641	11.8198	12.007	12.2027	12.4067	12.619	12.8393	13.0677	13.304	13.5481	13.7996	14.0586	14.3248	14.5979	14.8778	15.1641	15.4566	15.755	16.0589	16.3681	16.6821	17.0007	17.3233	17.6496	17.9792	18.3117	18.6465	18.9832	19.3213	19.6604	20	
0.46	20	19.6625	19.3255	18.9894	18.6547	18.3219	17.9915	17.6638	17.3393	17.0185	16.7016	16.3893	16.0817	15.7792	15.4822	15.1911	14.906	14.6273	14.3553	14.0902	13.8321	13.5814	13.3381	13.1025	12.8748	12.6549	12.4432	12.2397	12.0444	11.8575	11.679	11.5091	11.3476	11.1948	11.0506	10.9151	10.7883	10.6702	10.5608	10.4602	10.3683	10.2851	10.2107	10.1451	10.0882	10.04	10.0007	9.97003	9.94815	9.93503	9.93066	9.93503	9.94816	9.97004	10.0007	10.0401	10.0882	10.1451	10.2107	10.2851	10.3683	10.4602	10.5609	10.6703	10.7884	10.9152	11.0507	11.1949	11.3477	11.5091	11.6791	11.8576	12.0445	12.2397	12.4433	12.655	12.8748	13.1026	13.3382	13.5814	13.8322	14.0902	14.3554	14.6274	14.9061	15.1912	15.4823	15.7793	16.0817	16.3893	16.7017	17.0185	17.3394	17.6638	17.9915	18.322	18.6547	18.9894	19.3255	19.6625	20	
0.47	20	19.6641	19.3287	18.9942	18.6611	18.3299	18.001	17.6748	17.3517	17.0323	16.7168	16.4057	16.0993	15.798	15.5022	15.2121	14.928	14.6502	14.379	14.1147	13.8573	13.6072	13.3646	13.1296	12.9023	12.6829	12.4716	12.2684	12.0734	11.8868	11.7086	11.5388	11.3776	11.2249	11.0809	10.9454	10.8187	10.7007	10.5913	10.4907	10.3988	10.3157	10.2413	10.1757	10.1188	10.0707	10.0313	10.0007	9.97879	9.96567	9.96129	9.96567	9.9788	10.0007	10.0313	10.0707	10.1188	10.1757	10.2414	10.3157	10.3989	10.4908	10.5914	10.7007	10.8188	10.9455	11.0809	11.225	11.3776	11.5389	11.7086	11.8869	12.0735	12.2685	12.4717	12.683	12.9024	13.1296	13.3647	13.6073	13.8574	14.1147	14.3791	14.6503	14.9281	15.2121	15.5023	15.7981	16.0994	16.4058	16.7169	17.0323	17.3518	17.6748	18.001	18.3299	18.6612	18.9942	19.3287	19.6641	20	
0.48	20	19.6653	19.331	18.9977	18.6657	18.3356	18.0077	17.6826	17.3606	17.0421	16.7276	16.4174	16.1119	15.8114	15.5164	15.227	14.9436	14.6665	14.3959	14.1321	13.8753	13.6257	13.3835	13.1489	12.9219	12.7029	12.4918	12.2889	12.0942	11.9077	11.7297	11.5601	11.3989	11.2464	11.1024	10.9671	10.8404	10.7224	10.6131	10.5125	10.4207	10.3376	10.2632	10.1976	10.1407	10.0926	10.0532	10.0225	10.0007	9.98755	9.98317	9.98755	10.0007	10.0226	10.0532	10.0926	10.1407	10.1976	10.2632	10.3376	10.4207	10.5126	10.6132	10.7225	10.8405	10.9671	11.1025	11.2464	11.399	11.5601	11.7297	11.9078	12.0942	12.289	12.4919	12.703	12.922	13.1489	13.3836	13.6258	13.8754	14.1322	14.396	14.6666	14.9437	15.2271	15.5164	15.8115	16.112	16.4175	16.7276	17.0422	17.3606	17.6826	18.0078	18.3356	18.6657	18.9977	19.331	19.6653	20	
0.49	20	19.666	19.3324	18.9997	18.6684	18.339	18.0118	17.6872	17.3658	17.048	16.734	16.4244	16.1194	15.8195	15.5249	15.2359	14.953	14.6763	14.406	14.1426	13.8861	13.6368	13.3948	13.1604	12.9337	12.7149	12.504	12.3012	12.1066	11.9203	11.7423	11.5728	11.4118	11.2593	11.1154	10.9801	10.8534	10.7355	10.6262	10.5256	10.4338	10.3507	10.2763	10.2107	10.1538	10.1057	10.0663	10.0357	10.0138	10.0007	9.9963	10.0007	10.0138	10.0357	10.0663	10.1057	10.1538	10.2107	10.2763	10.3507	10.4338	10.5257	10.6262	10.7355	10.8535	10.9801	11.1154	11.2593	11.4118	11.5728	11.7424	11.9203	12.1067	12.3013	12.504	12.7149	12.9338	13.1605	13.3949	13.6368	13.8861	14.1426	14.4061	14.6763	14.953	15.236	15.5249	15.8195	16.1195	16.4245	16.7341	17.048	17.3659	17.6873	18.0118	18.339	18.6685	18.9997	19.3324	19.666	20	
0.5	20	19.6662	19.3328	19.0004	18.6693	18.3401	18.0131	17.6888	17.3676	17.0499	16.7362	16.4267	16.1219	15.8221	15.5277	15.2389	14.9561	14.6795	14.4094	14.1461	13.8897	13.6404	13.3986	13.1643	12.9376	12.7188	12.508	12.3053	12.1107	11.9245	11.7465	11.577	11.416	11.2636	11.1197	10.9844	10.8578	10.7398	10.6305	10.53	10.4381	10.355	10.2807	10.2151	10.1582	10.1101	10.0707	10.0401	10.0182	10.0051	10.0007	10.0051	10.0182	10.0401	10.0707	10.1101	10.1582	10.2151	10.2807	10.3551	10.4382	10.53	10.6306	10.7398	10.8578	10.9844	11.1197	11.2636	11.4161	11.5771	11.7466	11.9245	12.1108	12.3053	12.5081	12.7189	12.9377	13.1643	13.3986	13.6405	13.8897	14.1461	14.4095	14.6796	14.9562	15.239	15.5278	15.8222	16.122	16.4268	16.7362	17.05	17.3677	17.6888	18.0131	18.3401	18.6694	19.0004	19.3329	19.6662	20	
0.51	20	19.666	19.3324	18.9997	18.6684	18.339	18.0118	17.6872	17.3658	17.048	16.734	16.4244	16.1194	15.8195	15.5249	15.2359	14.953	14.6763	14.406	14.1426	13.8861	13.6368	13.3948	13.1604	12.9337	12.7149	12.504	12.3012	12.1066	11.9203	11.7423	11.5728	11.4118	11.2593	11.1154	10.9801	10.8534	10.7355	10.6262	10.5256	10.4338	10.3507	10.2763	10.2107	10.1538	10.1057	10.0663	10.0357	10.0138	10.0007	9.99631	10.0007	10.0138	10.0357	10.0663	10.1057	10.1538	10.2107	10.2763	10.3507	10.4338	10.5257	10.6262	10.7355	10.8535	10.9801	11.1154	11.2593	11.4118	11.5729	11.7424	11.9203	12.1067	12.3013	12.504	12.7149	12.9338	13.1605	13.3949	13.6368	13.8861	14.1426	14.4061	14.6763	14.953	15.236	15.5249	15.8195	16.1195	16.4245	16.7341	17.048	17.3659	17.6873	18.0118	18.339	18.6685	18.9997	19.3324	19.666	20	
0.52	20	19.6653	19.331	18.9977	18.6657	18.3356	18.0077	17.6826	17.3606	17.0421	16.7276	16.4174	16.1119	15.8114	15.5164	15.227	14.9436	14.6665	14.3959	14.1321	13.8753	13.6257	13.3835	13.1489	12.9219	12.7029	12.4919	12.2889	12.0942	11.9077	11.7297	11.5601	11.399	11.2464	11.1024	10.9671	10.8404	10.7224	10.6131	10.5125	10.4207	10.3376	10.2632	10.1976	10.1407	10.0926	10.0532	10.0226	10.0007	9.98755	9.98318	9.98756	10.0007	10.0226	10.0532	10.0926	10.1407	10.1976	10.2632	10.3376	10.4207	10.5126	10.6132	10.7225	10.8405	10.9671	11.1025	11.2464	11.399	11.5601	11.7297	11.9078	12.0942	12.289	12.4919	12.703	12.922	13.1489	13.3836	13.6258	13.8754	14.1322	14.396	14.6666	14.9437	15.2271	15.5164	15.8115	16.112	16.4175	16.7276	17.0422	17.3606	17.6826	18.0078	18.3356	18.6657	18.9977	19.331	19.6653	20	
0.53	20	19.6641	19.3287	18.9942	18.6611	18.3299	18.001	17.6748	17.3517	17.0323	16.7168	16.4057	16.0993	15.798	15.5022	15.2121	14.928	14.6502	14.379	14.1147	13.8573	13.6073	13.3646	13.1296	12.9023	12.6829	12.4716	12.2684	12.0735	11.8868	11.7086	11.5388	11.3776	11.2249	11.0809	10.9455	10.8187	10.7007	10.5913	10.4907	10.3989	10.3157	10.2413	10.1757	10.1188	10.0707	10.0313	10.0007	9.9788	9.96568	9.9613	9.96568	9.97881	10.0007	10.0313	10.0707	10.1188	10.1757	10.2414	10.3158	10.3989	10.4908	10.5914	10.7007	10.8188	10.9455	11.0809	11.225	11.3776	11.5389	11.7086	11.8869	12.0735	12.2685	12.4717	12.683	12.9024	13.1296	13.3647	13.6073	13.8574	14.1147	14.3791	14.6503	14.9281	15.2121	15.5023	15.7981	16.0994	16.4058	16.7169	17.0323	17.3518	17.6748	18.001	18.3299	18.6612	18.9942	19.3287	19.6641	20	
0.54	20	19.6625	19.3255	18.9894	18.6547	18.3219	17.9915	17.6638	17.3393	17.0185	16.7017	16.3893	16.0817	15.7792	15.4823	15.1911	14.906	14.6274	14.3553	14.0902	13.8321	13.5814	13.3381	13.1025	12.8748	12.655	12.4432	12.2397	12.0444	11.8575	11.679	11.5091	11.3477	11.1948	11.0507	10.9152	10.7883	10.6702	10.5608	10.4602	10.3683	10.2851	10.2107	10.1451	10.0882	10.0401	10.0007	9.97005	9.94817	9.93505	9.93067	9.93505	9.94818	9.97006	10.0007	10.0401	10.0882	10.1451	10.2108	10.2852	10.3683	10.4602	10.5609	10.6703	10.7884	10.9152	11.0507	11.1949	11.3477	11.5091	11.6791	11.8576	12.0445	12.2397	12.4433	12.655	12.8748	13.1026	13.3382	13.5814	13.8322	14.0902	14.3554	14.6274	14.9061	15.1912	15.4823	15.7793	16.0817	16.3893	16.7017	17.0185	17.3394	17.6638	17.9915	18.322	18.6547	18.9894	19.3255	19.6625	20	
0.55	20	19.6604	19.3213	18.9831	18.6464	18.3116	17.9792	17.6496	17.3233	17.0006	16.6821	16.368	16.0589	15.7549	15.4565	15.164	14.8777	14.5979	14.3247	14.0586	13.7996	13.548	13.304	13.0677	12.8393	12.6189	12.4067	12.2027	12.007	11.8198	11.641	11.4708	11.3091	11.1561	11.0118	10.8762	10.7492	10.631	10.5216	10.4209	10.329	10.2458	10.1714	10.1057	10.0488	10.0007	9.96129	9.93066	9.90879	9.89566	9.89129	9.89567	9.90879	9.93067	9.9613	10.0007	10.0488	10.1057	10.1714	10.2458	10.329	10.4209	10.5216	10.6311	10.7493	10.8762	11.0118	11.1562	11.3092	11.4708	11.641	11.8198	12.007	12.2027	12.4067	12.619	12.8393	13.0677	13.304	13.5481	13.7997	14.0586	14.3248	14.5979	14.8778	15.1641	15.4566	15.755	16.0589	16.3681	16.6821	17.0007	17.3233	17.6496	17.9792	18.3117	18.6465	18.9832	19.3213	19.6604	20	
0.56	20	19.6578	19.3161	18.9754	18.6362	18.299	17.9641	17.6322	17.3035	16.9787	16.658	16.3419	16.0308	15.725	15.4249	15.1308	14.8429	14.5616	14.2872	14.0198	13.7597	13.5071	13.2621	13.0249	12.7958	12.5747	12.3619	12.1573	11.9612	11.7735	11.5944	11.4239	11.262	11.1087	10.9642	10.8284	10.7014	10.5831	10.4736	10.3728	10.2809	10.1977	10.1232	10.0576	10.0007	9.95253	9.91315	9.88252	9.86065	9.84753	9.84316	9.84753	9.86066	9.88253	9.91316	9.95254	10.0007	10.0576	10.1233	10.1977	10.2809	10.3729	10.4736	10.5832	10.7014	10.8285	10.9643	11.1088	11.262	11.4239	11.5944	11.7736	11.9612	12.1574	12.3619	12.5748	12.7958	13.025	13.2621	13.5071	13.7597	14.0198	14.2872	14.5617	14.843	15.1308	15.425	15.7251	16.0309	16.342	16.6581	16.9787	17.3036	17.6322	17.9642	18.299	18.6362	18.9755	19.3162	19.6578	20	
0.57	20	19.6548	19.31	18.9663	18.6241	18.2839	17.9461	17.6114	17.28	16.9526	16.6294	16.3109	15.9975	15.6895	15.3873	15.0912	14.8016	14.5186	14.2426	13.9737	13.7123	13.4584	13.2124	12.9742	12.7442	12.5223	12.3087	12.1036	11.9069	11.7187	11.5392	11.3683	11.2061	11.0527	10.9079	10.772	10.6448	10.5264	10.4168	10.316	10.224	10.1408	10.0663	10.0007	9.94376	9.89563	9.85625	9.82563	9.80377	9.79065	9.78627	9.79065	9.80377	9.82564	9.85626	9.89564	9.94378	10.0007	10.0664	10.1408	10.224	10.3161	10.4169	10.5265	10.6448	10.772	10.908	11.0527	11.2062	11.3683	11.5392	11.7188	11.9069	12.1036	12.3088	12.5223	12.7442	12.9743	13.2124	13.4585	13.7123	13.9738	14.2426	14.5186	14.8016	15.0913	15.3873	15.6895	15.9975	16.3109	16.6294	16.9526	17.2801	17.6114	17.9462	18.2839	18.6241	18.9663	19.31	19.6548	20	
0.58	20	19.6512	19.3029	18.9556	18.6099	18.2663	17.9252	17.5872	17.2527	16.9222	16.596	16.2747	15.9587	15.6481	15.3436	15.0453	14.7535	14.4686	14.1907	13.9202	13.6573	13.4021	13.1547	12.9154	12.6844	12.4616	12.2472	12.0413	11.844	11.6553	11.4753	11.3041	11.1416	10.9878	10.8429	10.7068	10.5794	10.4609	10.3513	10.2504	10.1584	10.0751	10.0007	9.93498	9.87809	9.82996	9.7906	9.75999	9.73813	9.72502	9.72065	9.72502	9.73813	9.76	9.79061	9.82997	9.8781	9.935	10.0007	10.0751	10.1584	10.2504	10.3513	10.461	10.5795	10.7068	10.8429	10.9879	11.1416	11.3041	11.4754	11.6554	11.8441	12.0414	12.2472	12.4616	12.6844	12.9155	13.1548	13.4021	13.6573	13.9203	14.1908	14.4686	14.7536	15.0453	15.3436	15.6482	15.9587	16.2748	16.5961	16.9222	17.2527	17.5872	17.9252	18.2663	18.6099	18.9556	19.3029	19.6512	20	
0.59	20	19.6471	19.2947	18.9434	18.5937	18.2461	17.9012	17.5595	17.2213	16.8873	16.5579	16.2334	15.9143	15.6009	15.2936	14.9927	14.6986	14.4115	14.1316	13.8592	13.5946	13.3378	13.089	12.8485	12.6162	12.3924	12.1772	11.9705	11.7725	11.5833	11.4028	11.2311	11.0682	10.9142	10.769	10.6327	10.5052	10.3866	10.2769	10.176	10.0839	10.0006	9.92619	9.86053	9.80365	9.75554	9.71619	9.68559	9.66375	9.65064	9.64627	9.65064	9.66375	9.6856	9.7162	9.75555	9.80366	9.86054	9.92621	10.0007	10.0839	10.176	10.2769	10.3867	10.5053	10.6327	10.769	10.9142	11.0682	11.2311	11.4028	11.5833	11.7726	11.9706	12.1772	12.3925	12.6163	12.8485	13.0891	13.3378	13.5946	13.8593	14.1317	14.4115	14.6987	14.9928	15.2936	15.6009	15.9143	16.2334	16.5579	16.8874	17.2214	17.5595	17.9012	18.2461	18.5937	18.9434	19.2947	19.6471	20	
0.6	20	19.6424	19.2854	18.9295	18.5753	18.2233	17.8741	17.5281	17.1859	16.848	16.5147	16.1867	15.8641	15.5475	15.2372	14.9335	14.6367	14.3471	14.065	13.7905	13.5239	13.2654	13.0151	12.7732	12.5397	12.3148	12.0985	11.891	11.6923	11.5024	11.3214	11.1492	10.986	10.8317	10.6863	10.5498	10.4222	10.3035	10.1937	10.0927	10.0006	9.91737	9.84293	9.77729	9.72043	9.67235	9.63303	9.60245	9.58062	9.56752	9.56316	9.56753	9.58062	9.60246	9.63303	9.67236	9.72045	9.7773	9.84295	9.9174	10.0007	10.0928	10.1937	10.3035	10.4222	10.5498	10.6863	10.8317	10.986	11.1493	11.3214	11.5025	11.6924	11.8911	12.0986	12.3148	12.5397	12.7732	13.0152	13.2655	13.524	13.7906	14.065	14.3472	14.6368	14.9335	15.2372	15.5476	15.8642	16.1867	16.5148	16.848	17.1859	17.5281	17.8741	18.2233	18.5753	18.9295	19.2854	19.6424	20	
0.61	20	19.6372	19.275	18.914	18.5547	18.1977	17.8436	17.493	17.1462	16.8039	16.4665	16.1344	15.808	15.4879	15.1742	14.8673	14.5676	14.2753	13.9907	13.7139	13.4453	13.1849	12.9329	12.6894	12.4546	12.2285	12.0112	11.8028	11.6033	11.4127	11.2311	11.0585	10.8949	10.7403	10.5946	10.458	10.3302	10.2115	10.1016	10.0006	9.90853	9.82528	9.75087	9.68526	9.62845	9.5804	9.54111	9.51057	9.48876	9.47568	9.47132	9.47568	9.48876	9.51057	9.54112	9.58041	9.62846	9.68528	9.75089	9.8253	9.90855	10.0007	10.1016	10.2115	10.3303	10.458	10.5947	10.7403	10.8949	11.0586	11.2312	11.4127	11.6033	11.8028	12.0112	12.2285	12.4546	12.6894	12.9329	13.1849	13.4453	13.714	13.9907	14.2754	14.5677	14.8674	15.1742	15.4879	15.8081	16.1344	16.4665	16.8039	17.1463	17.493	17.8437	18.1977	18.5547	18.914	19.275	19.6372	20	
0.62	20	19.6314	19.2634	18.8967	18.5318	18.1693	17.8098	17.4539	17.1021	16.7549	16.4129	16.0764	15.7458	15.4217	15.1043	14.794	14.4911	14.1958	13.9085	13.6293	13.3583	13.0959	12.8421	12.597	12.3607	12.1333	11.915	11.7056	11.5053	11.314	11.1319	10.9588	10.7948	10.6399	10.494	10.3572	10.2294	10.1105	10.0006	9.89965	9.80757	9.72437	9.65	9.58445	9.52768	9.47969	9.44045	9.40995	9.38817	9.3751	9.37075	9.37511	9.38817	9.40995	9.44046	9.4797	9.5277	9.58446	9.65002	9.72438	9.80759	9.89967	10.0006	10.1105	10.2294	10.3572	10.494	10.6399	10.7948	10.9588	11.1319	11.3141	11.5053	11.7056	11.915	12.1334	12.3608	12.597	12.8421	13.096	13.3584	13.6293	13.9085	14.1959	14.4911	14.7941	15.1044	15.4217	15.7459	16.0764	16.4129	16.755	17.1021	17.4539	17.8098	18.1693	18.5318	18.8967	19.2634	19.6314	20	
0.63	20	19.625	19.2506	18.8775	18.5064	18.1378	17.7724	17.4107	17.0534	16.7009	16.3537	16.0123	15.6772	15.3488	15.0274	14.7133	14.4069	14.1085	13.8182	13.5363	13.2629	12.9983	12.7426	12.4957	12.2579	12.0293	11.8097	11.5994	11.3982	11.2063	11.0235	10.85	10.6856	10.5304	10.3844	10.2474	10.1195	10.0006	9.89071	9.78977	9.69775	9.61461	9.54031	9.47484	9.41815	9.37023	9.33105	9.3006	9.27886	9.26582	9.26147	9.26582	9.27886	9.30061	9.33106	9.37024	9.41816	9.47485	9.54033	9.61462	9.69777	9.78979	9.89074	10.0006	10.1195	10.2474	10.3844	10.5305	10.6857	10.85	11.0236	11.2063	11.3982	11.5994	11.8098	12.0293	12.258	12.4958	12.7426	12.9984	13.263	13.5363	13.8182	14.1085	14.407	14.7134	15.0274	15.3488	15.6773	16.0124	16.3537	16.7009	17.0534	17.4108	17.7724	18.1378	18.5064	18.8775	19.2506	19.625	20	
0.64	20	19.6179	19.2365	18.8565	18.4785	18.1032	17.7312	17.3633	16.9998	16.6414	16.2887	15.9421	15.602	15.2688	14.9431	14.6249	14.3148	14.0129	13.7195	13.4347	13.1588	12.8919	12.6341	12.3854	12.1461	11.916	11.6953	11.4839	11.2819	11.0893	10.906	10.732	10.5673	10.4119	10.2656	10.1286	10.0006	9.88171	9.77185	9.67098	9.57904	9.496	9.42181	9.35644	9.29985	9.25203	9.21293	9.18254	9.16085	9.14784	9.14351	9.14784	9.16085	9.18255	9.21294	9.25203	9.29986	9.35645	9.42182	9.49601	9.57906	9.671	9.77188	9.88174	10.0006	10.1286	10.2657	10.4119	10.5673	10.732	10.906	11.0893	11.282	11.484	11.6953	11.916	12.1461	12.3855	12.6341	12.8919	13.1589	13.4348	13.7195	14.013	14.3148	14.625	14.9431	15.2689	15.602	15.9421	16.2887	16.6415	16.9998	17.3633	17.7313	18.1032	18.4785	18.8565	19.2365	19.6179	20	
0.65	20	19.6101	19.221	18.8334	18.4479	18.0652	17.6861	17.3112	16.9411	16.5764	16.2176	15.8652	15.5197	15.1816	14.8511	14.5286	14.2145	13.9089	13.6121	13.3244	13.0457	12.7764	12.5164	12.2659	12.0249	11.7934	11.5715	11.3591	11.1563	10.963	10.7791	10.6047	10.4397	10.2841	10.1377	10.0006	9.87263	9.75379	9.64402	9.54325	9.45144	9.36853	9.29448	9.22925	9.1728	9.12509	9.08609	9.05579	9.03416	9.02119	9.01686	9.02119	9.03416	9.0558	9.0861	9.1251	9.17281	9.22926	9.2945	9.36855	9.45145	9.54327	9.64404	9.75381	9.87265	10.0006	10.1377	10.2841	10.4398	10.6048	10.7792	10.963	11.1563	11.3591	11.5715	11.7934	12.0249	12.2659	12.5165	12.7764	13.0458	13.3244	13.6122	13.9089	14.2145	14.5286	14.8511	15.1816	15.5198	15.8653	16.2176	16.5764	16.9412	17.3113	17.6862	18.0652	18.4479	18.8334	19.221	19.6101	20	
0.66	20	19.6017	19.2041	18.8081	18.4144	18.0237	17.6368	17.2544	16.8771	16.5054	16.1401	15.7815	15.4302	15.0866	14.7511	14.4239	14.1055	13.7961	13.4958	13.2048	12.9234	12.6515	12.3893	12.1369	11.8942	11.6613	11.4381	11.2248	11.0211	10.8272	10.6428	10.4681	10.3028	10.147	10.0006	9.86344	9.73554	9.6168	9.50717	9.40656	9.31493	9.2322	9.15834	9.09329	9.037	8.98943	8.95057	8.92036	8.89881	8.88588	8.88157	8.88588	8.89881	8.92037	8.95057	8.98944	9.03701	9.0933	9.15835	9.23222	9.31494	9.40658	9.50719	9.61683	9.73556	9.86346	10.0006	10.147	10.3028	10.4681	10.6429	10.8272	11.0212	11.2248	11.4382	11.6613	11.8942	12.1369	12.3893	12.6515	12.9234	13.2049	13.4958	13.7961	14.1056	14.424	14.7511	15.0866	15.4302	15.7816	16.1401	16.5055	16.8771	17.2544	17.6369	18.0237	18.4144	18.8081	19.2041	19.6017	20	
0.67	20	19.5924	19.1856	18.7805	18.3778	17.9784	17.5831	17.1925	16.8073	16.4282	16.0558	15.6905	15.333	14.9836	14.6426	14.3106	13.9876	13.674	13.3701	13.0758	12.7914	12.5169	12.2525	11.998	11.7537	11.5193	11.295	11.0807	10.8763	10.6817	10.497	10.3219	10.1565	10.0006	9.85412	9.71706	9.58929	9.47072	9.36129	9.2609	9.1695	9.08702	9.01339	8.94855	8.89247	8.84509	8.80637	8.77629	8.75482	8.74195	8.73766	8.74195	8.75483	8.7763	8.80638	8.84509	8.89248	8.94856	9.0134	9.08703	9.16952	9.26092	9.3613	9.47074	9.58931	9.71708	9.85415	10.0006	10.1565	10.3219	10.497	10.6818	10.8763	11.0807	11.2951	11.5194	11.7537	11.9981	12.2525	12.5169	12.7914	13.0758	13.3701	13.6741	13.9877	14.3106	14.6427	14.9836	15.333	15.6906	16.0558	16.4282	16.8073	17.1925	17.5831	17.9785	18.3778	18.7805	19.1856	19.5924	20	
0.68	20	19.5823	19.1654	18.7504	18.338	17.9291	17.5246	17.1251	16.7315	16.3443	15.9643	15.5919	15.2276	14.872	14.5254	14.1881	13.8604	13.5425	13.2346	12.9369	12.6495	12.3723	12.1056	11.8492	11.6031	11.3674	11.142	10.9267	10.7216	10.5265	10.3414	10.1661	10.0005	9.84465	9.6983	9.56139	9.43383	9.31551	9.20635	9.10626	9.01516	8.93298	8.85964	8.79507	8.73923	8.69207	8.65354	8.62361	8.60225	8.58944	8.58517	8.58944	8.60225	8.62361	8.65354	8.69208	8.73924	8.79508	8.85965	8.93299	9.01518	9.10628	9.20637	9.31553	9.43385	9.56141	9.69832	9.84467	10.0006	10.1661	10.3414	10.5265	10.7216	10.9267	11.142	11.3674	11.6032	11.8492	12.1056	12.3724	12.6495	12.9369	13.2346	13.5425	13.8604	14.1881	14.5254	14.872	15.2277	15.5919	15.9643	16.3444	16.7315	17.1252	17.5246	17.9292	18.338	18.7504	19.1654	19.5823	20	
0.69	20	19.5713	19.1435	18.7177	18.2947	17.8755	17.461	17.052	16.6492	16.2533	15.8651	15.485	15.1137	14.7515	14.3988	14.056	13.7232	13.4009	13.089	12.7878	12.4972	12.2174	11.9483	11.6899	11.4423	11.2052	10.9787	10.7626	10.5569	10.3613	10.1759	10.0005	9.83499	9.6792	9.53303	9.39638	9.26911	9.15114	9.04234	8.94263	8.85191	8.77009	8.6971	8.63287	8.57732	8.53042	8.49211	8.46235	8.44112	8.42838	8.42414	8.42839	8.44112	8.46235	8.49211	8.53043	8.57733	8.63287	8.69711	8.7701	8.85192	8.94265	9.04236	9.15116	9.26913	9.3964	9.53305	9.67922	9.83501	10.0006	10.176	10.3614	10.5569	10.7626	10.9787	11.2052	11.4423	11.69	11.9483	12.2174	12.4972	12.7878	13.089	13.4009	13.7233	14.056	14.3988	14.7515	15.1137	15.4851	15.8651	16.2534	16.6492	17.052	17.461	17.8755	18.2947	18.7177	19.1435	19.5713	20	
0.7	20	19.5593	19.1196	18.682	18.2476	17.8172	17.3919	16.9726	16.5599	16.1547	15.7578	15.3695	14.9906	14.6214	14.2623	13.9137	13.5758	13.2488	12.9328	12.6279	12.3342	12.0517	11.7803	11.52	11.2708	11.0325	10.8049	10.5881	10.3819	10.1861	10.0005	9.82511	9.65969	9.50412	9.35825	9.22197	9.09512	8.97759	8.86925	8.77001	8.67975	8.59838	8.52581	8.46197	8.40677	8.36018	8.32212	8.29257	8.27148	8.25884	8.25463	8.25884	8.27148	8.29257	8.32213	8.36018	8.40678	8.46197	8.52582	8.59839	8.67976	8.77002	8.86927	8.9776	9.09513	9.22198	9.35827	9.50414	9.65971	9.82513	10.0005	10.1861	10.3819	10.5882	10.805	11.0325	11.2708	11.5201	11.7803	12.0517	12.3342	12.628	12.9328	13.2488	13.5758	13.9138	14.2624	14.6214	14.9906	15.3695	15.7578	16.1548	16.5599	16.9726	17.392	17.8173	18.2476	18.682	19.1196	19.5593	20	
0.71	20	19.5462	19.0936	18.6433	18.1964	17.7539	17.3169	16.8864	16.4632	16.048	15.6416	15.2447	14.8577	14.4812	14.1154	13.7608	13.4175	13.0857	12.7655	12.4569	12.1601	11.8748	11.6012	11.3391	11.0884	10.8489	10.6205	10.4031	10.1965	10.0005	9.81495	9.63969	9.47453	9.31933	9.1739	9.03811	8.9118	8.79483	8.68708	8.5884	8.4987	8.41786	8.3458	8.28241	8.22763	8.18139	8.14363	8.11432	8.0934	8.08086	8.07669	8.08086	8.0934	8.11432	8.14364	8.1814	8.22764	8.28242	8.3458	8.41787	8.49871	8.58842	8.68709	8.79485	8.91182	9.03813	9.17392	9.31934	9.47455	9.63971	9.81497	10.0005	10.1965	10.4031	10.6205	10.8489	11.0884	11.3391	11.6012	11.8749	12.1601	12.4569	12.7655	13.0857	13.4175	13.7608	14.1155	14.4812	14.8578	15.2447	15.6417	16.048	16.4632	16.8864	17.317	17.7539	18.1964	18.6433	19.0936	19.5462	20	
0.72	20	19.532	19.0653	18.6011	18.1407	17.6851	17.2355	16.7929	16.3583	15.9324	15.5161	15.1099	14.7145	14.3302	13.9574	13.5965	13.2476	12.9109	12.5865	12.2742	11.9742	11.6864	11.4106	11.1468	10.8947	10.6542	10.4251	10.2073	10.0005	9.80448	9.61911	9.44416	9.27943	9.12475	8.97992	8.84477	8.71914	8.60287	8.49581	8.39782	8.30879	8.22858	8.1571	8.09425	8.03994	7.99412	7.95671	7.92766	7.90694	7.89452	7.89039	7.89453	7.90695	7.92767	7.95671	7.99412	8.03995	8.09425	8.1571	8.22859	8.3088	8.39784	8.49583	8.60289	8.71916	8.84479	8.97994	9.12477	9.27945	9.44417	9.61913	9.8045	10.0005	10.2073	10.4252	10.6542	10.8947	11.1468	11.4107	11.6864	11.9743	12.2743	12.5865	12.911	13.2477	13.5966	13.9575	14.3302	14.7145	15.1099	15.5161	15.9325	16.3583	16.793	17.2355	17.6851	18.1407	18.6012	19.0653	19.532	20	
0.73	20	19.5166	19.0345	18.5553	18.0801	17.6103	17.1471	16.6916	16.2447	15.8074	15.3804	14.9644	14.56	14.1676	13.7876	13.4202	13.0657	12.724	12.3952	12.0793	11.7763	11.4859	11.2081	10.9427	10.6894	10.4481	10.2185	10.0005	9.79364	9.59785	9.41284	9.2384	9.07429	8.92031	8.77626	8.64192	8.51713	8.4017	8.29547	8.1983	8.11004	8.03057	7.95976	7.89753	7.84378	7.79843	7.76142	7.73268	7.71219	7.6999	7.69581	7.6999	7.71219	7.73268	7.76142	7.79843	7.84379	7.89754	7.95977	8.03057	8.11005	8.19831	8.29548	8.40171	8.51714	8.64193	8.77627	8.92033	9.07431	9.23841	9.41286	9.59786	9.79366	10.0005	10.2186	10.4481	10.6894	10.9427	11.2081	11.4859	11.7763	12.0793	12.3952	12.724	13.0657	13.4203	13.7877	14.1677	14.56	14.9644	15.3804	15.8074	16.2447	16.6916	17.1471	17.6103	18.0801	18.5553	19.0345	19.5166	20	
0.74	20	19.4997	19.001	18.5053	18.0142	17.529	17.051	16.5815	16.1215	15.6719	15.2337	14.8073	14.3935	13.9927	13.6052	13.2311	12.8708	12.5241	12.191	11.8716	11.5656	11.2729	10.9932	10.7264	10.4722	10.2303	10.0004	9.78236	9.57578	9.38042	9.19601	9.0223	8.85902	8.70596	8.56286	8.42953	8.30574	8.19132	8.08608	7.98986	7.9025	7.82388	7.75386	7.69234	7.63922	7.59441	7.55784	7.52946	7.50922	7.49709	7.49305	7.49709	7.50922	7.52946	7.55784	7.59441	7.63922	7.69235	7.75387	7.82389	7.90251	7.98987	8.08609	8.19133	8.30575	8.42954	8.56288	8.70597	8.85904	9.02231	9.19602	9.38043	9.5758	9.78238	10.0005	10.2303	10.4722	10.7264	10.9933	11.2729	11.5656	11.8716	12.1911	12.5241	12.8708	13.2312	13.6052	13.9927	14.3936	14.8074	15.2337	15.6719	16.1215	16.5815	17.051	17.529	18.0142	18.5053	19.001	19.4997	20	
0.75	20	19.4813	18.9643	18.4508	17.9423	17.4404	16.9465	16.4619	15.9878	15.5252	15.075	14.6377	14.2141	13.8045	13.4092	13.0284	12.6622	12.3105	11.9733	11.6504	11.3416	11.0468	10.7655	10.4976	10.2427	10.0004	9.77057	9.55277	9.34669	9.15203	8.96848	8.79575	8.63355	8.48163	8.33971	8.20758	8.085	7.97175	7.86766	7.77255	7.68624	7.60859	7.53946	7.47875	7.42633	7.38214	7.34608	7.3181	7.29814	7.28618	7.2822	7.28618	7.29814	7.3181	7.34608	7.38214	7.42634	7.47875	7.53947	7.60859	7.68625	7.77256	7.86768	7.97177	8.08501	8.20759	8.33973	8.48164	8.63357	8.79576	8.9685	9.15205	9.34671	9.55279	9.77059	10.0004	10.2427	10.4976	10.7655	11.0468	11.3417	11.6504	11.9733	12.3105	12.6622	13.0284	13.4092	13.8045	14.2141	14.6378	15.075	15.5252	15.9878	16.4619	16.9465	17.4404	17.9423	18.4508	18.9643	19.4813	20	
0.76	20	19.4612	18.9243	18.3912	17.8638	17.3438	16.8326	16.3319	15.8427	15.3662	14.9032	14.4545	14.0207	13.602	13.1988	12.8111	12.439	12.0824	11.7412	11.4151	11.1038	10.807	10.5245	10.2557	10.0004	9.75818	9.52865	9.31144	9.10619	8.91253	8.73013	8.55867	8.39781	8.24728	8.10679	7.97608	7.8549	7.74304	7.64028	7.54643	7.46131	7.38476	7.31665	7.25685	7.20524	7.16173	7.12624	7.0987	7.07907	7.0673	7.06338	7.0673	7.07907	7.0987	7.12624	7.16173	7.20524	7.25685	7.31666	7.38477	7.46132	7.54644	7.64029	7.74305	7.85492	7.97609	8.1068	8.24729	8.39782	8.55868	8.73015	8.91255	9.1062	9.31146	9.52867	9.7582	10.0004	10.2557	10.5245	10.8071	11.1038	11.4151	11.7412	12.0825	12.4391	12.8111	13.1988	13.602	14.0207	14.4546	14.9033	15.3662	15.8427	16.3319	16.8327	17.3438	17.8638	18.3912	18.9243	19.4612	20	
0.77	20	19.4391	18.8804	18.326	17.778	17.2382	16.7084	16.1902	15.6849	15.1936	14.7172	14.2565	13.812	13.384	12.9728	12.5782	12.2004	11.8391	11.494	11.1649	10.8514	10.5531	10.2696	10.0004	9.74509	9.50324	9.27441	9.05816	8.85408	8.66178	8.48086	8.31096	8.15175	8.00289	7.86408	7.73504	7.6155	7.50522	7.40398	7.31157	7.2278	7.15251	7.08554	7.02675	6.97604	6.9333	6.89844	6.8714	6.85213	6.84058	6.83673	6.84058	6.85213	6.8714	6.89845	6.9333	6.97605	7.02676	7.08554	7.15252	7.22782	7.31158	7.40399	7.50524	7.61551	7.73505	7.86409	8.0029	8.15176	8.31098	8.48087	8.66179	8.8541	9.05818	9.27442	9.50326	9.74511	10.0004	10.2696	10.5531	10.8514	11.1649	11.494	11.8391	12.2004	12.5782	12.9728	13.3841	13.812	14.2566	14.7173	15.1936	15.6849	16.1902	16.7084	17.2382	17.778	18.326	18.8804	19.4391	20	
0.78	20	19.4149	18.8322	18.2545	17.6839	17.1227	16.5727	16.0357	15.5131	15.006	14.5156	14.0424	13.5869	13.1494	12.73	12.3287	11.9452	11.5794	11.2309	10.8992	10.5838	10.2844	10.0004	9.73117	9.47632	9.23529	9.00758	8.79271	8.59021	8.39963	8.22056	8.05258	7.89533	7.74845	7.6116	7.4845	7.36684	7.25837	7.15886	7.06807	6.98583	6.91193	6.84623	6.78859	6.73887	6.69698	6.66283	6.63634	6.61746	6.60615	6.60238	6.60615	6.61746	6.63634	6.66283	6.69699	6.73888	6.78859	6.84624	6.91194	6.98583	7.06808	7.15887	7.25838	7.36685	7.48451	7.61161	7.74846	7.89534	8.05259	8.22057	8.39964	8.59022	8.79272	9.00759	9.2353	9.47633	9.73119	10.0004	10.2844	10.5839	10.8992	11.2309	11.5794	11.9452	12.3287	12.73	13.1494	13.5869	14.0424	14.5156	15.0061	15.5131	16.0357	16.5727	17.1227	17.6839	18.2545	18.8322	19.4149	20	
0.79	20	19.3881	18.7791	18.1757	17.5805	16.9958	16.424	15.8667	15.3256	14.802	14.2967	13.8104	13.3437	12.8966	12.4691	12.0612	11.6724	11.3025	10.9509	10.617	10.3004	10.0003	9.7163	9.44762	9.19372	8.95401	8.72791	8.51488	8.31441	8.12599	7.94915	7.78347	7.62854	7.48396	7.34939	7.2245	7.10899	7.00257	6.905	6.81604	6.73549	6.66316	6.59887	6.54249	6.49388	6.45293	6.41955	6.39367	6.37522	6.36417	6.36049	6.36417	6.37522	6.39367	6.41955	6.45293	6.49388	6.54249	6.59888	6.66316	6.7355	6.81605	6.90501	7.00258	7.109	7.22451	7.3494	7.48397	7.62855	7.78348	7.94916	8.126	8.31442	8.5149	8.72792	8.95402	9.19374	9.44764	9.71631	10.0004	10.3004	10.617	10.9509	11.3025	11.6725	12.0612	12.4692	12.8966	13.3437	13.8105	14.2967	14.802	15.3256	15.8667	16.424	16.9959	17.5805	18.1757	18.7791	19.3882	20	
0.8	20	19.3586	18.7205	18.0887	17.4664	16.8563	16.2606	15.6816	15.1208	14.5795	14.0587	13.5591	13.0808	12.6241	12.1888	11.7745	11.3809	11.0073	10.6531	10.3177	10.0003	9.70029	9.41685	9.14929	8.89694	8.65911	8.43517	8.22451	8.02655	7.84075	7.6666	7.50362	7.35138	7.20947	7.0775	6.95513	6.84203	6.73792	6.64253	6.5556	6.47694	6.40633	6.34361	6.28862	6.24122	6.2013	6.16878	6.14356	6.12559	6.11482	6.11123	6.11482	6.12559	6.14356	6.16878	6.20131	6.24122	6.28862	6.34361	6.40634	6.47695	6.55561	6.64253	6.73793	6.84204	6.95514	7.07751	7.20948	7.35139	7.50363	7.66661	7.84076	8.02656	8.22452	8.43518	8.65912	8.89695	9.14931	9.41686	9.7003	10.0003	10.3177	10.6531	11.0073	11.3809	11.7745	12.1888	12.6241	13.0809	13.5591	14.0587	14.5795	15.1208	15.6816	16.2606	16.8563	17.4664	18.0887	18.7205	19.3586	20	
0.81	20	19.3258	18.6553	17.9924	17.3403	16.7022	16.0807	15.4782	14.8963	14.3365	13.7996	13.2862	12.7965	12.3303	11.8874	11.4672	11.0692	10.6926	10.3366	10.0003	9.68294	9.38362	9.1015	8.83577	8.58563	8.35033	8.12915	7.92143	7.72653	7.54386	7.37286	7.21304	7.0639	6.92503	6.79601	6.67648	6.56609	6.46455	6.37158	6.28691	6.21033	6.14162	6.08061	6.02714	5.98108	5.94229	5.91069	5.8862	5.86874	5.85829	5.85481	5.85829	5.86875	5.8862	5.9107	5.9423	5.98108	6.02715	6.08062	6.14163	6.21033	6.28692	6.37159	6.46456	6.5661	6.67649	6.79602	6.92504	7.06391	7.21304	7.37287	7.54387	7.72654	7.92144	8.12916	8.35034	8.58564	8.83578	9.10152	9.38363	9.68296	10.0003	10.3366	10.6926	11.0692	11.4673	11.8874	12.3303	12.7965	13.2862	13.7997	14.3365	14.8964	15.4782	16.0807	16.7022	17.3403	17.9924	18.6554	19.3258	20	
0.82	20	19.2892	18.5828	17.8851	17.2001	16.5314	15.8819	15.2541	14.6499	14.0706	13.5171	12.9897	12.4886	12.0132	11.5632	11.1378	10.7362	10.3573	10.0003	9.66402	9.34751	9.04975	8.76978	8.50665	8.25947	8.02742	7.80968	7.60553	7.41428	7.23529	7.06796	6.91176	6.76617	6.63073	6.50503	6.38868	6.28131	6.18262	6.09232	6.01013	5.93583	5.86921	5.81008	5.75827	5.71365	5.6761	5.6455	5.62179	5.6049	5.59479	5.59142	5.59479	5.6049	5.6218	5.64551	5.6761	5.71365	5.75828	5.81008	5.86922	5.93584	6.01014	6.09233	6.18263	6.28132	6.38868	6.50504	6.63074	6.76617	6.91176	7.06797	7.2353	7.41429	7.60554	7.80969	8.02743	8.25949	8.50666	8.76979	9.04977	9.34752	9.66403	10.0003	10.3573	10.7362	11.1378	11.5632	12.0132	12.4886	12.9898	13.5171	14.0706	14.6499	15.2541	15.8819	16.5314	17.2002	17.8851	18.5828	19.2892	20	
0.83	20	19.2481	18.5015	17.7652	17.0438	16.3414	15.6614	15.0064	14.3785	13.779	13.2084	12.6671	12.1548	11.6708	11.2145	10.7847	10.3803	10.0003	9.64322	9.30797	8.99332	8.6981	8.42121	8.16157	7.91821	7.69018	7.47662	7.27674	7.08977	6.91505	6.75194	6.59985	6.45827	6.3267	6.20471	6.09188	5.98786	5.89231	5.80494	5.72547	5.65367	5.58931	5.53222	5.48221	5.43916	5.40293	5.37343	5.35057	5.33429	5.32453	5.32129	5.32454	5.33429	5.35057	5.37344	5.40294	5.43916	5.48222	5.53222	5.58932	5.65367	5.72548	5.80494	5.89232	5.98787	6.09189	6.20471	6.32671	6.45828	6.59986	6.75195	6.91506	7.08978	7.27674	7.47663	7.69019	7.91822	8.16158	8.42122	8.69812	8.99333	9.30798	9.64323	10.0003	10.3804	10.7847	11.2145	11.6708	12.1548	12.6671	13.2084	13.779	14.3786	15.0065	15.6614	16.3414	17.0438	17.7652	18.5015	19.2481	20	
0.84	20	19.2018	18.4099	17.6303	16.8684	16.129	15.4158	14.7317	14.0788	13.4583	12.8705	12.3155	11.7925	11.3008	10.8391	10.4061	10.0002	9.62017	9.26435	8.93132	8.6197	8.32814	8.05537	7.80022	7.5616	7.33847	7.12989	6.93501	6.75303	6.58321	6.42488	6.27745	6.14036	6.0131	5.89521	5.78628	5.68593	5.59382	5.50965	5.43314	5.36405	5.30215	5.24726	5.1992	5.15784	5.12305	5.09472	5.07277	5.05714	5.04778	5.04466	5.04778	5.05714	5.07277	5.09472	5.12305	5.15785	5.19921	5.24726	5.30215	5.36405	5.43315	5.50966	5.59383	5.68594	5.78628	5.89521	6.0131	6.14037	6.27746	6.42489	6.58321	6.75303	6.93502	7.1299	7.33848	7.56161	7.80023	8.05538	8.32815	8.61971	8.93134	9.26436	9.62018	10.0003	10.4061	10.8391	11.3008	11.7926	12.3155	12.8705	13.4583	14.0789	14.7318	15.4158	16.129	16.8684	17.6303	18.4099	19.2018	20	
0.85	20	19.1492	18.306	17.4777	16.6706	15.8903	15.1411	14.4259	13.7468	13.1048	12.4999	11.9317	11.3991	10.9008	10.4351	10.0002	9.59441	9.21582	8.86268	8.53328	8.22602	7.93937	7.67192	7.42236	7.18949	6.9722	6.76948	6.58039	6.40411	6.23986	6.08694	5.94471	5.81261	5.69012	5.57675	5.47209	5.37576	5.28739	5.2067	5.13339	5.06723	5.00798	4.95546	4.9095	4.86996	4.8367	4.80962	4.78865	4.77372	4.76477	4.7618	4.76478	4.77372	4.78865	4.80962	4.8367	4.86996	4.90951	4.95547	5.00799	5.06723	5.1334	5.20671	5.2874	5.37576	5.4721	5.57676	5.69012	5.81262	5.94472	6.08694	6.23986	6.40412	6.5804	6.76948	6.97221	7.1895	7.42237	7.67192	7.93937	8.22603	8.53329	8.86268	9.21583	9.59442	10.0002	10.4351	10.9008	11.3991	11.9317	12.4999	13.1048	13.7468	14.4259	15.1411	15.8903	16.6706	17.4777	18.306	19.1492	20	
0.86	20	19.0889	18.1872	17.3037	16.4461	15.6207	14.8322	14.084	13.3777	12.7141	12.0926	11.5123	10.9715	10.4682	10.0002	9.56534	9.16134	8.78601	8.43726	8.1131	7.81172	7.53139	7.27057	7.0278	6.8018	6.59136	6.39541	6.21298	6.04316	5.88518	5.73829	5.60185	5.47527	5.35801	5.24959	5.14959	5.05761	4.9733	4.89636	4.8265	4.76349	4.70709	4.65711	4.61339	4.57578	4.54416	4.51842	4.49849	4.4843	4.4758	4.47298	4.47581	4.4843	4.49849	4.51843	4.54416	4.57578	4.61339	4.65711	4.70709	4.76349	4.82651	4.89637	4.97331	5.05761	5.14959	5.2496	5.35801	5.47527	5.60186	5.7383	5.88518	6.04317	6.21298	6.39542	6.59137	6.8018	7.02781	7.27057	7.5314	7.81173	8.11311	8.43726	8.78602	9.16135	9.56535	10.0002	10.4682	10.9715	11.5123	12.0926	12.7141	13.3777	14.084	14.8322	15.6207	16.4461	17.3037	18.1872	19.0889	20	
0.87	20	19.0193	18.0503	17.1039	16.1894	15.314	14.4832	13.7001	12.966	12.2811	11.6442	11.0534	10.5063	10.0002	9.53222	9.09961	8.69961	8.32963	7.98723	7.67016	7.37636	7.10392	6.85115	6.61649	6.39854	6.19603	6.00784	5.83293	5.67039	5.51939	5.3792	5.24913	5.12859	5.01705	4.91401	4.81905	4.73178	4.65184	4.57894	4.51278	4.45313	4.39976	4.3525	4.31116	4.27561	4.24573	4.22142	4.2026	4.18919	4.18117	4.1785	4.18117	4.18919	4.2026	4.22142	4.24574	4.27562	4.31116	4.3525	4.39977	4.45313	4.51278	4.57894	4.65185	4.73179	4.81906	4.91402	5.01705	5.1286	5.24913	5.3792	5.5194	5.6704	5.83294	6.00784	6.19604	6.39854	6.6165	6.85116	7.10393	7.37636	7.67017	7.98724	8.32964	8.69962	9.09961	9.53223	10.0002	10.5063	11.0534	11.6443	12.2812	12.966	13.7001	14.4832	15.314	16.1894	17.1039	18.0503	19.0193	20	
0.88	20	18.938	17.8909	16.8722	15.8934	14.9629	14.0865	13.267	12.5052	11.8002	11.1498	10.5509	10.0002	9.49403	9.02888	8.60125	8.20786	7.84566	7.51188	7.20396	6.91962	6.65679	6.41363	6.18847	5.97983	5.78639	5.60697	5.44052	5.28608	5.14281	5.00997	4.88688	4.77293	4.66758	4.57036	4.48083	4.39861	4.32336	4.25476	4.19255	4.13648	4.08634	4.04195	4.00314	3.96978	3.94174	3.91893	3.90127	3.8887	3.88118	3.87867	3.88117	3.8887	3.90127	3.91893	3.94174	3.96978	4.00315	4.04195	4.08635	4.13648	4.19255	4.25477	4.32336	4.39862	4.48084	4.57037	4.66759	4.77293	4.88688	5.00997	5.14282	5.28608	5.44052	5.60698	5.7864	5.97984	6.18847	6.41363	6.6568	6.91963	7.20397	7.51188	7.84567	8.20787	8.60126	9.02889	9.49404	10.0002	10.5509	11.1498	11.8002	12.5053	13.267	14.0865	14.9629	15.8934	16.8722	17.8909	18.938	20	
0.89	20	18.8418	17.7029	16.6007	15.549	14.5578	13.6328	12.7762	11.9877	11.2648	10.6037	10.0001	9.44943	8.94689	8.48803	8.06865	7.68491	7.33329	7.01065	6.71418	6.44137	6.19	5.9581	5.74392	5.54592	5.36274	5.19315	5.03608	4.89059	4.75581	4.631	4.51548	4.40865	4.30999	4.21902	4.13531	4.05848	3.98821	3.9242	3.86617	3.8139	3.76718	3.72582	3.68968	3.65862	3.63252	3.61129	3.59486	3.58317	3.57616	3.57383	3.57616	3.58316	3.59486	3.61129	3.63252	3.65862	3.68968	3.72582	3.76718	3.8139	3.86618	3.9242	3.98822	4.05849	4.13531	4.21902	4.30999	4.40866	4.51548	4.631	4.75581	4.89059	5.03609	5.19315	5.36274	5.54593	5.74392	5.9581	6.19	6.44137	6.71419	7.01066	7.3333	7.68491	8.06866	8.48803	8.94689	9.44944	10.0002	10.6037	11.2648	11.9877	12.7762	13.6328	14.5578	15.549	16.6007	17.7029	18.8418	20	
0.9	20	18.7263	17.4783	16.2785	15.1442	14.0865	13.1106	12.2175	11.4046	10.6674	10.0001	9.39657	8.85052	8.35606	7.90768	7.50043	7.12983	6.79194	6.48326	6.20074	5.94168	5.70373	5.48484	5.28319	5.0972	4.92548	4.7668	4.62008	4.48437	4.35884	4.24273	4.13538	4.03621	3.94471	3.86041	3.78289	3.7118	3.64682	3.58765	3.53404	3.48577	3.44264	3.40448	3.37114	3.34249	3.31843	3.29886	3.28371	3.27293	3.26648	3.26433	3.26648	3.27293	3.28371	3.29886	3.31843	3.34249	3.37114	3.40448	3.44264	3.48577	3.53404	3.58765	3.64682	3.71181	3.7829	3.86041	3.94471	4.03622	4.13538	4.24273	4.35884	4.48438	4.62008	4.7668	4.92548	5.09721	5.2832	5.48484	5.70374	5.94168	6.20074	6.48326	6.79194	7.12984	7.50043	7.90769	8.35606	8.85053	9.39658	10.0001	10.6674	11.4046	12.2175	13.1106	14.0865	15.1442	16.2785	17.4783	18.7263	20	
0.91	20	18.585	17.2054	15.891	14.663	13.5332	12.5057	11.5784	10.7458	10.0001	9.33284	8.73549	8.20003	7.71913	7.28623	6.89554	6.54205	6.22136	5.92971	5.66382	5.42087	5.19842	4.99434	4.8068	4.63421	4.47518	4.32848	4.19307	4.06799	3.95244	3.84569	3.7471	3.65611	3.57223	3.495	3.42405	3.35902	3.2996	3.24553	3.19657	3.1525	3.11313	3.07831	3.0479	3.02178	2.99984	2.982	2.96819	2.95837	2.95249	2.95053	2.95249	2.95837	2.96819	2.982	2.99984	3.02178	3.0479	3.07832	3.11313	3.1525	3.19657	3.24554	3.29961	3.35902	3.42405	3.49501	3.57223	3.65612	3.7471	3.84569	3.95244	4.06799	4.19307	4.32849	4.47518	4.63422	4.80681	4.99434	5.19842	5.42088	5.66383	5.92972	6.22137	6.54205	6.89555	7.28623	7.71914	8.20004	8.73549	9.33284	10.0001	10.7458	11.5784	12.5057	13.5332	14.663	15.891	17.2054	18.585	20	
0.92	20	18.4085	16.8673	15.417	14.0834	12.8777	11.8004	10.8448	10.0001	9.25439	8.59562	8.01252	7.49499	7.03421	6.62254	6.25347	5.92145	5.62176	5.3504	5.10397	4.87957	4.67472	4.48729	4.31547	4.15767	4.01254	3.87889	3.75571	3.64208	3.53724	3.44049	3.35122	3.26891	3.19309	3.12333	3.05928	3.00061	2.94704	2.89831	2.8542	2.81451	2.77908	2.74774	2.72038	2.69688	2.67715	2.66111	2.64869	2.63986	2.63457	2.63281	2.63457	2.63986	2.64869	2.66111	2.67715	2.69688	2.72038	2.74774	2.77908	2.81452	2.8542	2.89831	2.94705	3.00062	3.05929	3.12334	3.19309	3.26891	3.35122	3.44049	3.53724	3.64209	3.75571	3.87889	4.01254	4.15767	4.31547	4.4873	4.67472	4.87958	5.10398	5.35041	5.62176	5.92145	6.25347	6.62255	7.03421	7.495	8.01252	8.59562	9.2544	10.0001	10.8448	11.8004	12.8777	14.0834	15.4171	16.8673	18.4085	20	
0.93	20	18.1815	16.4384	14.8265	13.3758	12.0939	10.9736	10.0001	9.15541	8.42176	7.78273	7.22397	6.73321	6.30017	5.91626	5.57435	5.26851	4.99382	4.74616	4.5221	4.31872	4.1336	3.96465	3.8101	3.66846	3.53841	3.41884	3.30878	3.2074	3.11395	3.0278	2.94839	2.87522	2.80787	2.74595	2.68913	2.63711	2.58964	2.54647	2.50741	2.47228	2.44092	2.4132	2.389	2.36822	2.35077	2.33658	2.32561	2.3178	2.31313	2.31158	2.31313	2.3178	2.32561	2.33659	2.35077	2.36821	2.389	2.4132	2.44092	2.47228	2.50741	2.54647	2.58964	2.63712	2.68914	2.74596	2.80787	2.87522	2.94839	3.0278	3.11395	3.2074	3.30878	3.41884	3.53841	3.66846	3.8101	3.96465	4.1336	4.31873	4.5221	4.74617	4.99382	5.26851	5.57435	5.91626	6.30017	6.73322	7.22397	7.78274	8.42176	9.15541	10.0001	10.9736	12.0939	13.3758	14.8265	16.4384	18.1815	20	
0.94	20	17.8793	15.8782	14.0748	12.4994	11.1483	10.0001	9.02652	8.19971	7.4945	6.88958	6.36741	5.91372	5.517	5.16798	4.85915	4.58443	4.33885	4.11833	3.91952	3.73962	3.5763	3.42759	3.29184	3.16764	3.0538	2.94927	2.85319	2.76477	2.68336	2.60837	2.5393	2.47572	2.41722	2.36348	2.31418	2.26907	2.22792	2.19052	2.15669	2.12627	2.09912	2.07513	2.05419	2.03621	2.02112	2.00885	1.99936	1.99261	1.98857	1.98723	1.98857	1.99261	1.99936	2.00885	2.02112	2.03621	2.05419	2.07513	2.09912	2.12627	2.15669	2.19052	2.22793	2.26908	2.31419	2.36348	2.41722	2.47572	2.53931	2.60837	2.68336	2.76477	2.85319	2.94928	3.0538	3.16764	3.29184	3.42759	3.5763	3.73963	3.91953	4.11834	4.33885	4.58443	4.85915	5.16798	5.517	5.91372	6.36741	6.88958	7.4945	8.19971	9.02652	10.0001	11.1483	12.4994	14.0748	15.8782	17.8793	20	
0.95	20	17.4574	15.1203	13.095	11.3986	10	8.85176	7.90625	7.12241	6.46694	5.91369	5.44236	5.03724	4.68613	4.3795	4.10985	3.87121	3.65881	3.4688	3.29804	3.14395	3.00438	2.87757	2.76202	2.65648	2.55986	2.47127	2.38992	2.31514	2.24634	2.18302	2.12474	2.07112	2.02182	1.97655	1.93504	1.89708	1.86246	1.831	1.80255	1.77699	1.75417	1.73401	1.71642	1.70132	1.68864	1.67834	1.67038	1.66471	1.66131	1.66019	1.66131	1.66471	1.67038	1.67834	1.68865	1.70132	1.71642	1.73401	1.75417	1.77699	1.80256	1.831	1.86246	1.89708	1.93505	1.97655	2.02182	2.07112	2.12474	2.18302	2.24634	2.31514	2.38992	2.47127	2.55986	2.65648	2.76203	2.87757	3.00438	3.14395	3.29804	3.4688	3.65881	3.87121	4.10985	4.3795	4.68614	5.03725	5.44236	5.91369	6.46694	7.12241	7.90625	8.85177	10	11.3986	13.095	15.1203	17.4574	20	
0.96	20	16.8301	14.0506	11.7864	10	8.60145	7.5007	6.62431	5.91673	5.33716	4.85587	4.45111	4.10676	3.81079	3.55405	3.32952	3.13174	2.95638	2.80002	2.65989	2.53374	2.41971	2.31629	2.2222	2.13638	2.05791	1.98603	1.92009	1.85952	1.80384	1.75263	1.70552	1.6622	1.62239	1.58585	1.55236	1.52174	1.49382	1.46847	1.44554	1.42494	1.40657	1.39033	1.37616	1.364	1.3538	1.3455	1.33909	1.33452	1.33179	1.33089	1.33179	1.33452	1.33909	1.3455	1.3538	1.364	1.37616	1.39033	1.40656	1.42494	1.44555	1.46847	1.49383	1.52174	1.55236	1.58585	1.62239	1.6622	1.70552	1.75263	1.80384	1.85952	1.92009	1.98603	2.05791	2.13638	2.22221	2.31629	2.41971	2.53374	2.65989	2.80002	2.95638	3.13174	3.32952	3.55405	3.81079	4.10676	4.45111	4.85588	5.33716	5.91673	6.62431	7.5007	8.60145	10	11.7864	14.0506	16.8301	20	
0.97	20	15.8122	12.4657	10	8.21362	6.90502	5.92528	5.17357	4.58303	4.10909	3.72154	3.39943	3.1279	2.8962	2.69639	2.52246	2.36983	2.23496	2.11501	2.00776	1.91139	1.82444	1.74568	1.67412	1.60892	1.54936	1.49485	1.44488	1.39901	1.35687	1.31813	1.28251	1.24977	1.2197	1.1921	1.16681	1.1437	1.12263	1.1035	1.08621	1.07067	1.05681	1.04457	1.03389	1.02472	1.01703	1.01078	1.00595	1.00251	1.00045	0.999766	1.00045	1.00251	1.00595	1.01078	1.01703	1.02473	1.03389	1.04457	1.05681	1.07067	1.08621	1.1035	1.12264	1.1437	1.16682	1.1921	1.2197	1.24977	1.28251	1.31813	1.35687	1.39901	1.44488	1.49485	1.54936	1.60892	1.67412	1.74568	1.82444	1.91139	2.00776	2.11501	2.23496	2.36984	2.52246	2.69639	2.89621	3.1279	3.39943	3.72155	4.1091	4.58303	5.17357	5.92529	6.90502	8.21362	10	12.4657	15.8122	20	
0.98	20	13.9531	10	7.53431	5.9494	4.87972	4.12185	3.56166	3.13272	2.79464	2.52178	2.29717	2.10921	1.94974	1.81283	1.69408	1.59019	1.4986	1.41731	1.34474	1.27964	1.22096	1.16788	1.11969	1.07581	1.03576	0.999128	0.965565	0.934771	0.906493	0.880507	0.856624	0.834676	0.81452	0.796029	0.779092	0.763612	0.749505	0.736698	0.725124	0.714722	0.705446	0.697253	0.690107	0.683974	0.678827	0.674646	0.671411	0.669111	0.667734	0.667276	0.667734	0.669111	0.671412	0.674646	0.678827	0.683974	0.690107	0.697254	0.705446	0.714721	0.725122	0.736698	0.749507	0.763614	0.779093	0.79603	0.814521	0.834677	0.856624	0.880508	0.906493	0.934772	0.965565	0.999128	1.03576	1.07581	1.11969	1.16788	1.22096	1.27964	1.34474	1.41731	1.4986	1.59019	1.69408	1.81283	1.94974	2.10921	2.29717	2.52178	2.79464	3.13272	3.56166	4.12185	4.87972	5.9494	7.53431	10	13.9531	20	
0.99	20	10	6.04695	4.1878	3.16995	2.5426	2.12073	1.81848	1.59155	1.41499	1.27375	1.15824	1.06204	0.980723	0.911103	0.850858	0.798245	0.75193	0.710876	0.674268	0.641451	0.611899	0.585178	0.560934	0.538872	0.518743	0.500338	0.483481	0.468019	0.453824	0.440783	0.428799	0.417789	0.407679	0.398405	0.389912	0.382151	0.375079	0.36866	0.362857	0.357644	0.352995	0.348889	0.345308	0.342235	0.339656	0.337561	0.33594	0.334787	0.334098	0.333868	0.334098	0.334787	0.33594	0.337561	0.339656	0.342235	0.345308	0.34889	0.352995	0.357643	0.362856	0.368659	0.37508	0.382152	0.389913	0.398406	0.407679	0.417789	0.428799	0.440783	0.453824	0.46802	0.483481	0.500338	0.518743	0.538872	0.560935	0.585178	0.611899	0.641452	0.674268	0.710877	0.75193	0.798245	0.850858	0.911103	0.980723	1.06204	1.15824	1.27375	1.41499	1.59155	1.81848	2.12073	2.5426	3.16995	4.1878	6.04695	10	20	
1	0	0	0	0	0	0	0	0	0	0	0	0	0	0	0	0	0	0	0	0	0	0	0	0	0	0	0	0	0	0	0	0	0	0	0	0	0	0	0	0	0	0	0	0	0	0	0	0	0	0	0	0	0	0	0	0	0	0	0	0	0	0	0	0	0	0	0	0	0	0	0	0	0	0	0	0	0	0	0	0	0	0	0	0	0	0	0	0	0	0	0	0	0	0	0	0	0	0	0	0	0	
